government = tribal
add_government_reform = greentide_horde
government_rank = 1
primary_culture = green_orc
religion = great_dookan
technology_group = tech_orcish
capital = 730

1444.11.11 = {
	monarch = {
		name = "Azukor"
		dynasty = "Bonecarver"
		birth_date = 1414.5.3
		adm = 0
		dip = 1
		mil = 2
	}
}