government = monarchy
add_government_reform = autocracy_reform
government_rank = 1
primary_culture = zanite
add_accepted_culture = sun_elf
religion = bulwari_sun_cult
technology_group = tech_bulwari
#historical_friend = F25 #historical overlord
capital = 613

1000.1.1 = { set_estate_privilege = estate_mages_organization_religious }

1434.7.14 = {
	monarch = {
		name = "Iskrates IV"
		dynasty = "szel-Attalu"
		birth_date = 1416.7.28
		adm = 4
		dip = 2
		mil = 3
	}
	add_ruler_personality = secretive_personality
	add_ruler_personality = sinner_personality
	
	queen = {
		country_of_origin = F39
		name = "Leja"
		dynasty = "szel-Sarumar"
		birth_date = 1414.3.5
		death_date = 1492.6.8
		female = yes
		adm = 2
		dip = 5
		mil = 1
	}
	add_queen_personality = zealot_personality
}

1438.5.5 = {
	heir = {
		name = "Raafi"
		monarch_name = "Raafi II"
		dynasty = "szel-Attalu"
		birth_date = 1438.5.5
		death_date = 1502.4.5
		claim = 95
		adm = 4
		dip = 5
		mil = 2
	}
}