185 = "Mallayd" # Dragonpeak
186 = "Kobildzex" # Kobold home
189 = "Soxun Kobildzex" # Deep Kobold home
4643 = "Besurxomai" # Undermine
4644 = "Vyrmgurdex" # Wyrmlair
4645 = "Mallazakurn" # Dragondepths
4646 = "Kobildgaru" # Kobold pass