######################################################################
# Furious mages.
######################################################################
mage_rebels = {

	color = { 179 75 75 }

	area = nation 					# Stays within the nation
	government = any				# Likes monarchy
	defection = none				# Does not defect
	independence = none				# Does not strive for independence
	defect_delay = 120
	unit_transfer = no
	gfx_type = culture_owner	
	will_relocate = yes	
	
	resilient = no
	reinforcing = yes
	general = yes
	smart = yes
	
	artillery = 0.0
	infantry = 1.0
	cavalry = 0.0
	
	morale = 1.0
	
	# Possible handle actions
	handle_action_negotiate = no
	handle_action_stability = yes
	handle_action_build_core = yes
	handle_action_send_missionary = yes		
	
	# The rebel type with the highest modifier for this province gets picked
	spawn_chance = {
		factor = 0
	}
 
 	# This is checked for EACH province in the Area of Operations
	movement_evaluation = {
		factor = 1
		modifier = {
			factor = 0.1
			units_in_province = 1
		}
		modifier = {
			factor = 0.001
			controlled_by = REB
		}
		modifier = {
			factor = 1.5
			unrest = 2
		}
		modifier = {
			factor = 1.5
			unrest = 4
		}
		modifier = {
			factor = 1.5
			unrest = 6
		}
	}
 
 	# Province Scope
 	siege_won_trigger = {
		always = yes
	}
	siege_won_effect = {
		owner = {
			add_adm_power = -5
			add_mil_power = -5
			add_dip_power = -5
		}
		owner = {
			if = {
				limit = { has_estate = estate_mages }
				change_estate_land_share = {
					estate = estate_mages
					share = 1.0
					province = ROOT
				}
			}
		}
	}
	
	# Country scope
	can_negotiate_trigger = {
		always = no
	}
	
	# Country scope
	can_enforce_trigger = {
		always = yes
	}
	
	# Localisation for their demands
	demands_description = "mages_rebels_demand"
	
	# Country Scope	
	demands_enforced_effect = {
		hidden_effect = {
			add_country_modifier = {
				name = just_lost_to_rebels
				duration = 10
				hidden = yes
			}
		}
		every_owned_province = {
			limit = {
				has_rebel_faction = REB
			}
			add_local_autonomy = 20
		}	
		if = {
			limit = {
				tag = I25
			}
			set_country_flag = verkal_dromak_mages_enforced_demands
		}
		if = {
			limit = { has_estate = estate_mages }
			change_estate_land_share = {
				estate = estate_mages
				share = 10.0
			}
		}
		add_country_modifier = {
			name = I25_mages_enforced_demands
			duration = 1820
		}
	}
}
