khaashalg={
	location=5381
	color={
		90 90 105 
	}
	inland=yes
	outgoing={
		name="south_nuzurbokh"
		path={
			5179 
		}
		control={
			4161.000000 1616.000000 4102.000000 1648.000000 
		}
	}
	outgoing={
		name="nuugdanghan"
		path={
			5406 
		}
		control={
			4261.000000 1480.000000 
		}
	}
	outgoing={
		name="baogzhad"
		path={
			5472 
		}
		control={
			4271.000000 1563.000000 4319.000000 1583.000000 4429.000000 1554.000000 
		}
	}
	members={
		5381 5405 5379 5378 5421 5418 5382 5380 5422 5383 
	}
}
north_nuzurbokh={
	location=5202
	color={
		85 15 85 
	}
	inland=yes
	outgoing={
		name="south_nuzurbokh"
		path={
			1139 
		}
		control={
			4155.000000 1719.000000 4080.000000 1713.000000 4057.000000 1673.000000 
		}
	}
	outgoing={
		name="north_lake"
		path={
			1139 
		}
		control={
			4168.000000 1757.000000 4142.000000 1783.000000 4098.000000 1779.000000 4052.000000 1764.000000 4026.000000 1750.000000 
		}
	}
	outgoing={
		name="the_blue_sea"
		path={
			1139 
		}
		control={
			4168.000000 1757.000000 4142.000000 1783.000000 4098.000000 1779.000000 4057.000000 1771.000000 4042.000000 1806.000000 3997.000000 1831.000000 3908.000000 1810.000000 3849.000000 1788.000000 
		}
	}
	outgoing={
		name="moduk"
		path={
			4990 
		}
		control={
			4205.000000 1781.000000 4234.000000 1835.000000 4322.000000 1867.000000 4393.000000 1866.000000 4479.000000 1898.000000 4538.000000 1903.000000 4549.000000 1888.000000 
		}
	}
	members={
		5200 5201 5202 5203 5197 5198 5199 5205 5206 5207 5208 5204 5210 5211 5212 5209 5215 5216 5220 5219 5221 5218 5222 5217 5192 5193 5194 5214 5196 5213 
	}
}
south_nuzurbokh={
	location=5179
	color={
		185 195 8 
	}
	inland=yes
	outgoing={
		name="central_lake"
		path={
			1139 
		}
		control={
			4029.000000 1637.000000 3967.000000 1644.000000 
		}
	}
	members={
		5170 5171 5172 5173 5174 5175 5177 5178 5176 5181 5179 5186 5184 5185 5182 5183 5168 5169 
	}
}
north_lake={
	location=5315
	color={
		25 15 5 
	}
	outgoing={
		name="central_lake"
		path={
			1139 
		}
		control={
			3995.000000 1720.000000 3990.000000 1698.000000 3992.000000 1665.000000 
		}
	}
	outgoing={
		name="the_blue_sea"
		path={
			1139 
		}
		control={
			3945.000000 1751.000000 3923.000000 1765.000000 3906.000000 1782.000000 3855.000000 1782.000000 
		}
	}
	outgoing={
		name="moduk"
		path={
			4990 
		}
		control={
			3945.000000 1751.000000 3923.000000 1765.000000 3916.000000 1774.000000 3899.000000 1805.000000 3945.000000 1844.000000 4059.000000 1868.000000 4229.000000 1847.000000 4322.000000 1867.000000 4393.000000 1866.000000 4479.000000 1898.000000 4538.000000 1903.000000 4549.000000 1888.000000 
		}
	}
	members={
		5226 5227 5228 5224 5225 5230 5231 5229 5235 5236 5241 5238 5239 5237 5242 5243 5249 5251 5232 5233 5234 5223 5195 5191 5188 5189 5190 5256 5257 5258 5259 5252 5253 5255 5260 5315 
	}
}
central_lake={
	location=5312
	color={
		33 64 155 
	}
	outgoing={
		name="inner_island"
		path={
			1139 
		}
		control={
			3898.000000 1597.000000 3860.000000 1607.000000 3845.000000 1623.000000 3804.000000 1628.000000 
		}
	}
	outgoing={
		name="salahad_pass"
		path={
			1139 
		}
		control={
			3925.000000 1593.000000 3869.000000 1554.000000 
		}
	}
	members={
		5261 5262 5263 5264 5265 5266 5270 5271 5273 5267 5269 5187 5180 5167 5166 5165 5164 5163 5161 5162 5160 5159 5158 5157 5155 5156 5151 5149 5146 5145 5141 5140 5139 5135 5138 5285 5284 5283 5282 5304 5281 5280 5278 5277 5276 5312 
	}
}
salahad_pass={
	location=5085
	color={
		200 155 115 
	}
	inland=yes
	outgoing={
		name="golden_highway"
		path={
			1139 
		}
		control={
			3879.000000 1405.000000 3876.000000 1368.000000 3819.000000 1313.000000 
		}
	}
	outgoing={
		name="serpent_gift"
		path={
			1139 
		}
		control={
			3793.000000 1447.000000 3761.000000 1487.000000 3642.000000 1522.000000 3584.000000 1482.000000 3578.000000 1453.000000 3610.000000 1426.050049 3599.000000 1402.000000 3568.330078 1373.290039 3537.000000 1370.000000 3523.000000 1360.000000 
		}
	}
	members={
		5142 5080 5081 5082 5083 5084 5085 5089 5090 5091 5144 5147 5148 5150 5143 5152 5153 5086 5087 5088 5154 
	}
}
the_blue_sea={
	location=1444
	color={
		33 165 220 
	}
	outgoing={
		name="inner_island"
		path={
			1139 
		}
		control={
			3740.000000 1707.000000 3757.000000 1655.000000 
		}
	}
	outgoing={
		name="frost_forest"
		path={
			1139 
		}
		control={
			3712.000000 1754.000000 3675.000000 1785.000000 3626.280029 1771.680054 3587.000000 1812.000000 3548.000000 1836.000000 
		}
	}
	outgoing={
		name="moduk"
		path={
			4990 
		}
		control={
			3935.000000 1856.000000 4062.000000 1877.000000 4229.000000 1847.000000 4322.000000 1867.000000 4393.000000 1866.000000 4479.000000 1898.000000 4538.000000 1903.000000 4549.000000 1888.000000 
		}
	}
	members={
		5274 5275 5291 5292 5293 5294 5301 5279 5272 5268 5254 5250 5248 5247 5246 5245 5244 5121 5119 5117 5115 5116 5018 5011 5010 5008 5320 5321 5323 5108 1444 
	}
}
inner_island={
	location=1382
	color={
		125 11 175 
	}
	outgoing={
		name="ogre_steppe"
		path={
			1139 
		}
		control={
			3714.000000 1624.000000 3685.000000 1594.000000 3572.000000 1597.000000 3446.000000 1641.000000 
		}
	}
	outgoing={
		name="serpent_gift"
		path={
			1139 
		}
		control={
			3714.000000 1624.000000 3689.000000 1574.000000 3658.000000 1549.000000 3642.000000 1522.000000 3584.000000 1482.000000 3578.080078 1452.939941 3610.000000 1426.000000 3599.000000 1402.000000 3569.000000 1373.000000 3537.000000 1370.000000 3523.000000 1360.000000 
		}
	}
	members={
		5111 5114 5113 5120 5118 5122 5123 5124 5125 5126 5127 5129 5130 5134 5133 5136 5137 5067 5068 5071 5128 5131 5132 5075 5286 5287 5288 5306 5240 5290 5289 5295 5296 5297 5298 5299 5305 5300 5302 1382 
	}
}
ogre_steppe={
	location=5029
	color={
		155 141 135 
	}
	inland=yes
	outgoing={
		name="frost_forest"
		path={
			1139 
		}
		control={
			3398.000000 1633.000000 3409.000000 1639.000000 3402.000000 1649.000000 3418.000000 1681.000000 3423.000000 1696.000000 3424.000000 1704.000000 3446.000000 1716.000000 3443.000000 1731.000000 3450.000000 1746.000000 3450.000000 1752.000000 3443.000000 1761.000000 3449.000000 1766.000000 3456.000000 1763.000000 3462.000000 1763.000000 3473.000000 1755.000000 3473.000000 1762.000000 3481.000000 1781.000000 3489.000000 1790.000000 3498.000000 1797.000000 3501.000000 1809.000000 3500.000000 1822.000000 3508.000000 1835.000000 
		}
	}
	outgoing={
		name="serpent_gift"
		path={
			1139 
		}
		control={
			3461.000000 1537.000000 3546.000000 1516.000000 3583.000000 1493.000000 3577.000000 1472.000000 3578.000000 1453.000000 3610.000000 1426.000000 3599.000000 1402.000000 3569.000000 1373.000000 3537.000000 1370.000000 3523.000000 1360.000000 
		}
	}
	members={
		5024 5025 5026 5027 5028 5029 5032 5039 5031 5033 5035 5319 5030 5037 5038 5034 5036 5040 5041 5050 5042 5043 5044 5045 5049 5051 5057 5058 5052 5053 5054 5055 5056 5060 5066 5061 5062 5046 5048 5047 5059 5063 5070 5069 5065 5064 5112 5110 5109 5322 
	}
}
serpent_gift={
	location=5102
	color={
		225 211 175 
	}
	inland=yes
	outgoing={
		name="harpylen"
		path={
			1139 
		}
		control={
			3492.000000 1378.000000 3470.000000 1396.000000 3448.000000 1402.000000 3434.000000 1396.000000 3414.000000 1371.000000 
		}
	}
	members={
		5072 5073 5074 5076 5077 5078 5079 5092 5093 5094 5095 5096 5097 5098 5099 5100 5101 5102 5103 5104 5105 
	}
}
frost_forest={
	location=5003
	color={
		115 111 255 
	}
	inland=yes
	outgoing={
		name="northern_pass"
		path={
			1139 
		}
		control={
			3443.000000 1826.000000 3383.000000 1799.000000 3349.750000 1773.489990 3303.000000 1766.000000 
		}
	}
	members={
		5001 5002 5003 5006 5004 5005 5303 5012 5007 5014 5015 5016 5013 5019 5020 5021 5022 5023 5106 5107 5017 
	}
}
moduk={
	location=4990
	color={
		20 80 10 
	}
	outgoing={
		name="odheongu"
		path={
			5356 
		}
		control={
			4585.000000 1877.000000 4633.490234 1744.410034 4759.000000 1579.000000 4755.000000 1521.000000 4717.000000 1509.000000 
		}
	}
	outgoing={
		name="baogzhad"
		path={
			5472 
		}
		control={
			4410.000000 1664.000000 4439.000000 1563.000000 
		}
	}
	members={
		4990 4986 4987 4988 4989 4991 4992 4993 4994 5000 5324 5325 5326 5327 5328 5329 5330 5331 5332 5333 5334 5335 5336 5009 5419 5427 6511 6512 
	}
}
baogzhad={
	location=5372
	color={
		200 0 0 
	}
	inland=yes
	outgoing={
		name="tianlou"
		path={
			4871 
		}
		control={
			4531.000000 1444.000000 4521.000000 1410.000000 4501.000000 1387.000000 4491.000000 1363.000000 4488.000000 1338.000000 4493.000000 1317.000000 4502.000000 1307.000000 4510.000000 1305.000000 4519.000000 1300.000000 4524.000000 1293.000000 4532.000000 1297.000000 
		}
	}
	outgoing={
		name="nuugdanghan"
		path={
			5406 
		}
		control={
			4454.000000 1466.000000 
		}
	}
	outgoing={
		name="odheongu"
		path={
			5356 
		}
		control={
			4592.000000 1535.000000 4633.000000 1508.000000 4667.000000 1498.000000 4691.000000 1497.000000 4690.000000 1515.000000 
		}
	}
	members={
		5372 5369 5368 5401 5370 5400 5371 5404 5402 5403 5374 5373 5339 5341 5340 5343 5342 5337 5375 5338 
	}
}
nuugdanghan={
	location=5406
	color={
		0 0 100 
	}
	inland=yes
	outgoing={
		name="tianlou"
		path={
			4871 
		}
		control={
			4396.000000 1375.000000 4445.000000 1352.000000 4482.000000 1330.000000 4492.000000 1315.000000 4502.000000 1307.000000 4510.000000 1305.000000 4519.000000 1300.000000 4524.000000 1293.000000 4532.000000 1297.000000 
		}
	}
	outgoing={
		name="yanchung"
		path={
			4859 
		}
		control={
			4348.000000 1369.000000 4366.000000 1322.000000 4388.000000 1309.000000 4379.000000 1288.000000 4393.000000 1275.000000 4412.000000 1268.000000 
		}
	}
	outgoing={
		name="bianfang"
		path={
			4952 
		}
		control={
			4338.000000 1374.000000 4337.000000 1328.000000 4327.779785 1291.640015 4327.000000 1280.000000 4332.000000 1267.000000 
		}
	}
	members={
		5356 5410 5413 5414 5416 5417 5415 5412 5407 5408 5423 5377 5411 5376 5406 
	}
}
odheongu={
	location=5356
	color={
		0 200 0 
	}
	outgoing={
		name="tianlou"
		path={
			4871 
		}
		control={
			4703.000000 1466.000000 4632.000000 1414.000000 4597.000000 1364.000000 4592.000000 1315.000000 4569.000000 1297.000000 4553.000000 1301.000000 4545.000000 1300.000000 
		}
	}
	members={
		5356 5367 5363 5365 5364 5366 5351 5352 5353 5354 5356 5357 5358 5359 5349 5348 5350 5345 5346 5344 5361 5360 5362 5355 5347 
	}
}
shamakhad={
	location=4630
	color={
		40 45 60 
	}
	inland=yes
	outgoing={
		name="jade_mines"
		path={
			4311 
		}
		control={
			4132.000000 1354.000000 4122.000000 1357.000000 4113.000000 1357.000000 4111.000000 1361.000000 4112.000000 1368.000000 4115.000000 1371.000000 4117.000000 1376.000000 4122.000000 1380.000000 4122.000000 1390.000000 4128.000000 1394.000000 4134.000000 1398.000000 4142.000000 1399.000000 4146.000000 1404.000000 4147.000000 1422.000000 
		}
	}
	outgoing={
		name="nadimraj"
		path={
			4460 
		}
		control={
			4129.000000 1354.000000 4102.000000 1350.000000 4099.000000 1335.000000 4094.000000 1324.000000 4087.000000 1316.000000 4082.000000 1305.000000 4076.000000 1299.000000 4078.000000 1289.000000 
		}
	}
	outgoing={
		name="bianfang"
		path={
			4952 
		}
		control={
			4141.000000 1338.000000 4153.000000 1328.000000 4159.000000 1320.000000 4170.000000 1313.000000 4174.000000 1306.000000 4188.000000 1293.000000 4202.000000 1300.000000 4212.000000 1310.000000 4238.000000 1299.000000 4245.000000 1288.000000 4254.000000 1283.000000 4268.000000 1282.000000 4281.000000 1275.000000 4283.000000 1258.000000 4297.000000 1247.000000 4309.000000 1244.000000 
		}
	}
	members={
		4513 4516 4517 4518 4519 4521 4522 4523 4524 4525 4526 4528 4529 4630 4530 4531 4532 4533 4534 4535 4536 4537 4538 4539 4540 4541 4542 4543 4545 4546 4549 4624 4625 4626 4627 4628 4629 4631 4632 4633 4634 4635 4636 4637 4638 4639 4640 4642 
	}
}
jade_mines={
	location=4311
	color={
		85 195 85 
	}
	inland=yes
	outgoing={
		name="tree_of_stone"
		path={
			1139 
		}
		control={
			4126.000000 1419.000000 4116.000000 1418.000000 4107.000000 1411.000000 4097.000000 1409.000000 4096.000000 1400.000000 4080.000000 1399.000000 4073.000000 1393.000000 4074.000000 1356.000000 4066.000000 1344.000000 4065.000000 1329.000000 3994.000000 1329.000000 3983.000000 1323.000000 3948.000000 1324.000000 3944.000000 1335.000000 3944.000000 1349.000000 
		}
	}
	outgoing={
		name="bianfang"
		path={
			4952 
		}
		control={
			4156.000000 1431.000000 4169.000000 1428.000000 4190.000000 1408.000000 4207.000000 1405.000000 4209.000000 1399.000000 4220.000000 1395.000000 4231.000000 1391.000000 4251.000000 1368.000000 4262.000000 1360.000000 4269.000000 1342.000000 4272.000000 1327.000000 4276.000000 1319.000000 4280.000000 1308.000000 4276.000000 1289.000000 4281.000000 1275.000000 4283.000000 1258.000000 4297.000000 1247.000000 4309.000000 1244.000000 
		}
	}
	members={
		4301 4302 4303 4304 4305 4306 4307 4308 4309 4310 4314 4315 4316 4317 4318 4319 4320 4359 4360 4312 4350 4311 4313 4339 4338 4337 4336 4335 4334 4351 4352 4348 4349 4324 4325 4326 4353 4327 4329 4330 4331 4332 4344 4354 4345 4355 4342 4341 4340 4323 4356 
	}
}
tree_of_stone={
	location=4247
	color={
		140 160 200 
	}
	inland=yes
	outgoing={
		name="nadimraj"
		path={
			4460 
		}
		control={
			3944.000000 1349.000000 3944.000000 1335.000000 3944.000000 1310.000000 3942.000000 1303.000000 3922.000000 1284.000000 3923.000000 1279.000000 3930.000000 1274.000000 3944.000000 1270.000000 3950.000000 1269.000000 3958.000000 1273.000000 3960.000000 1276.000000 3965.000000 1277.000000 3965.000000 1283.000000 3972.000000 1288.000000 3974.000000 1297.000000 3978.000000 1300.000000 3985.000000 1300.000000 3991.000000 1295.000000 3995.000000 1291.000000 4005.000000 1289.000000 4007.000000 1285.000000 4013.000000 1284.000000 4018.000000 1281.000000 4024.000000 1280.000000 4028.000000 1284.000000 4043.000000 1283.000000 4048.000000 1281.000000 4063.000000 1284.000000 
		}
	}
	outgoing={
		name="rakhadesh"
		path={
			4435 
		}
		control={
			3944.000000 1349.000000 3944.000000 1335.000000 3944.000000 1310.000000 3942.000000 1303.000000 3922.000000 1284.000000 3923.000000 1279.000000 3930.000000 1274.000000 3922.000000 1263.000000 3900.000000 1229.000000 3903.000000 1208.000000 3915.000000 1198.000000 3926.000000 1190.000000 3937.000000 1181.000000 
		}
	}
	outgoing={
		name="seghdihr"
		path={
			1139 
		}
		control={
			3932.000000 1358.000000 3914.000000 1348.000000 3895.000000 1344.000000 3870.000000 1344.000000 3800.000000 1348.000000 3764.000000 1350.000000 3746.000000 1354.000000 3710.000000 1353.000000 3694.000000 1340.000000 3661.000000 1326.000000 3631.000000 1322.000000 3613.000000 1323.000000 
		}
	}
	members={
		4242 4243 4244 4245 4246 4247 4248 4249 4250 4251 4252 4253 4254 4255 4256 4257 4258 4259 4260 4261 4262 4263 4264 4265 4266 4297 4298 4300 4284 4277 4277 4279 4280 4281 4271 4267 4282 4269 4270 4272 4292 4274 4275 4268 4283 4285 4287 4286 4288 4293 4294 4295 4296 4299 4278 4273 4290 4289 4291 
	}
}
bianfang={
	location=4952
	color={
		150 100 200 
	}
	inland=yes
	outgoing={
		name="yanchung"
		path={
			4859 
		}
		control={
			4341.000000 1254.000000 4366.000000 1250.000000 4408.000000 1251.000000 4417.000000 1254.000000 4421.000000 1260.000000 
		}
	}
	outgoing={
		name="kharunyana"
		path={
			4500 
		}
		control={
			4309.000000 1244.000000 4284.000000 1245.000000 4265.000000 1254.000000 4247.000000 1251.000000 4234.000000 1239.000000 4239.000000 1229.000000 4235.000000 1217.000000 4221.000000 1210.000000 4202.000000 1216.000000 
		}
	}
	members={
		4952 4973 4834 4969 4832 4831 5430 4830 4970 4829 4971 4812 4972 4828 4902 4815 4813 4814 4816 4818 4817 4901 4827 4819 4826 4825 4898 4899 4824 4900 4981 4985 5426 4951 4984 4982 4983 4840 4833 5409 
	}
}
yanchung={
	location=4859
	color={
		180 255 200 
	}
	inland=yes
	outgoing={
		name="tianlou"
		path={
			4871 
		}
		control={
			4437.000000 1263.000000 4446.000000 1277.000000 4462.000000 1281.000000 4471.000000 1285.000000 4479.000000 1287.000000 4487.000000 1292.000000 4494.000000 1303.000000 4502.000000 1307.000000 4510.000000 1305.000000 4519.000000 1300.000000 4524.000000 1293.000000 4532.000000 1297.000000 
		}
	}
	members={
		4859 4844 4842 4845 4848 4843 4974 4849 4850 4846 4906 4847 4853 4854 4933 4851 4852 4975 4856 4855 4950 4858 4861 4894 4892 4841 4891 4890 4895 4873 4860 4857 4930 4867 4976 
	}
}
tianlou={
	location=4871
	color={
		255 200 0 
	}
	outgoing={
		name="feiten"
		path={
			4871 
		}
		control={
			4545.000000 1300.000000 4553.000000 1301.000000 4556.000000 1294.000000 4552.000000 1281.000000 4544.000000 1243.000000 
		}
	}
	members={
		4871 4870 4869 4868 4932 4929 4915 4914 4978 4913 4907 4908 4977 4911 4909 4912 4910 4928 4862 4980 4927 4979 4917 4916 4926 4920 4925 4918 4922 4924 4923 4872 4903 4877 4904 4919 4921 1373 1372 4864 
	}
}
feiten={
	location=1371
	color={
		200 30 160 
	}
	outgoing={
		name="yemakai"
		path={
			1369 
		}
		control={
			4476.000000 1159.000000 4415.000000 1064.000000 4403.000000 1034.000000 
		}
	}
	members={
		1371 4837 4836 4835 4838 4839 4884 4885 4888 4893 4889 4887 4886 4883 4881 4882 4949 4879 4878 4880 4905 4896 4931 4874 4875 4876 5420 
	}
}
haiban={
	location=4779
	color={
		230 150 20 
	}
	inland=yes
	outgoing={
		name="gulf_of_rahen"
		path={
			1361 
		}
		control={
			4263.000000 1118.000000 4259.000000 1088.000000 4244.000000 1088.000000 4230.000000 1083.000000 4225.000000 1091.000000 4216.000000 1087.000000 4214.000000 1078.000000 4196.000000 1074.000000 4189.000000 1079.000000 4171.000000 1074.000000 4166.000000 1068.000000 4157.000000 1069.000000 4139.000000 1065.000000 4115.000000 1067.000000 
		}
	}
	outgoing={
		name="kharunyana"
		path={
			4500 
		}
		control={
			4257.000000 1165.000000 4226.000000 1155.000000 4223.000000 1133.000000 4204.000000 1136.000000 4183.000000 1145.000000 4172.000000 1158.000000 4167.000000 1175.000000 4169.000000 1183.000000 4173.000000 1184.000000 4176.000000 1193.000000 4180.000000 1195.000000 4183.000000 1199.000000 4188.000000 1201.000000 4190.000000 1211.000000 
		}
	}
	outgoing={
		name="yemakai"
		path={
			1369 
		}
		control={
			4283.000000 1127.000000 4346.000000 1115.000000 4370.000000 1068.000000 4394.000000 1065.000000 4403.000000 1054.000000 
		}
	}
	outgoing={
		name="cay_cam_sinh"
		path={
			1364 
		}
		control={
			4263.000000 1118.000000 4263.000000 1085.000000 4272.000000 1058.000000 4250.000000 1019.000000 4248.000000 991.000000 
		}
	}
	members={
		4763 4779 4694 4695 4696 4764 4762 4760 4758 4757 5428 4756 4775 5424 4945 4759 4967 5429 4801 4802 4804 4803 4798 4946 4797 4799 4800 4779 4778 4776 4942 4780 4943 4791 4792 4788 4941 4796 4795 4947 4793 4794 4786 4937 4936 4785 4782 4784 4935 4783 4777 4761 4789 4790 5425 4781 4940 4787 
	}
}
yemakai={
	location=1369
	color={
		75 220 155 
	}
	outgoing={
		name="arawkelin"
		path={
			1366 
		}
		control={
			4395.000000 931.000000 4327.000000 903.000000 4311.000000 898.000000 
		}
	}
	members={
		1369 1370 4754 4755 4750 4944 4749 4966 4751 4968 4753 4752 4745 4748 4747 4746 4955 4744 4823 4743 4742 4736 4731 4729 4730 4956 4965 4741 4740 4739 
	}
}
arawkelin={
	location=1366
	color={
		70 20 20 
	}
	outgoing={
		name="cay_cam_sinh"
		path={
			1364 
		}
		control={
			4244.000000 861.000000 4224.000000 901.000000 4235.000000 941.000000 
		}
	}
	members={
		1366 1644 1642 1622 1624 1367 1646 4772 4732 4957 4964 4735 4733 4728 4774 4727 4723 4726 4722 4963 4720 4725 4721 4718 4717 4719 4773 6141 6153 6140 6151 6139 6137 6136 6138 6144 6147 6152 6142 6145 6146 6148 6149 
	}
}
cay_cam_sinh={
	location=1364
	color={
		40 40 100 
	}
	outgoing={
		name="gulf_of_rahen"
		path={
			1361 
		}
		control={
			4203.000000 1008.000000 4126.000000 1031.000000 
		}
	}
	members={
		1364 1362 1365 4714 4712 4962 4711 4713 4767 4724 4766 4953 4734 4765 4959 4737 4710 4709 4768 4700 4701 4699 4961 4770 4706 4707 4960 4738 4954 4705 4703 4702 4958 4697 4771 4698 4704 4769 4708 4716 4715 
	}
}
nadimraj={
	location=4460
	color={
		170 0 15 
	}
	inland=yes
	outgoing={
		name="middle_rahen"
		path={
			4485 
		}
		control={
			4092.000000 1272.000000 4109.000000 1273.000000 4116.000000 1263.000000 4117.000000 1256.000000 4122.000000 1235.000000 
		}
	}
	outgoing={
		name="kharunyana"
		path={
			4500 
		}
		control={
			4092.000000 1272.000000 4109.000000 1273.000000 4116.000000 1263.000000 4120.000000 1256.000000 4136.000000 1257.000000 4151.000000 1254.000000 4161.000000 1246.000000 4171.000000 1245.000000 4184.000000 1243.000000 4189.000000 1229.000000 
		}
	}
	members={
		4510 4509 4478 4464 4468 4514 4474 4467 4515 4475 4460 4476 4465 4462 4463 4520 4466 4457 4455 4459 4550 4397 4458 4456 4454 4453 4452 4451 4449 4450 4445 4448 4507 4505 4506 
	}
}
rakhadesh={
	location=4435
	color={
		45 45 150 
	}
	inland=yes
	outgoing={
		name="gulf_of_rahen"
		path={
			1361 
		}
		control={
			3959.000000 1177.000000 3961.000000 1179.000000 3969.000000 1179.000000 3971.000000 1172.000000 3984.000000 1170.000000 3987.000000 1163.000000 4006.000000 1159.000000 4016.000000 1159.000000 4020.000000 1161.000000 4029.000000 1160.000000 4031.000000 1154.000000 4036.000000 1153.000000 4038.000000 1146.000000 4042.000000 1145.000000 4044.000000 1140.000000 4050.000000 1141.000000 4054.000000 1139.000000 4062.000000 1139.000000 4066.000000 1136.000000 4072.000000 1135.000000 4074.000000 1133.000000 4082.000000 1131.000000 4083.000000 1137.000000 4093.000000 1138.000000 4101.000000 1144.000000 4104.000000 1138.000000 4103.000000 1129.000000 4100.000000 1121.000000 4098.000000 1107.000000 
		}
	}
	outgoing={
		name="west_rahen_gulf"
		path={
			1350 
		}
		control={
			3947.000000 1173.000000 3930.000000 1174.000000 3927.000000 1166.000000 3929.000000 1157.000000 3933.000000 1151.000000 3936.000000 1145.000000 3944.000000 1137.000000 3952.000000 1131.000000 3962.000000 1121.000000 
		}
	}
	members={
		4446 4447 4548 4443 4444 4442 4441 4440 4439 4438 4437 4436 4435 4434 4433 4432 4431 4430 4429 4428 4427 4426 4416 4415 4414 4413 4412 4411 4410 4405 4379 4385 4368 4373 4401 4381 
	}
}
kharunyana={
	location=4500
	color={
		48 120 100 
	}
	inland=yes
	outgoing={
		name="gulf_of_rahen"
		path={
			1361 
		}
		control={
			4190.000000 1211.000000 4188.000000 1201.000000 4183.000000 1199.000000 4180.000000 1195.000000 4176.000000 1193.000000 4173.000000 1184.000000 4169.000000 1183.000000 4167.000000 1188.000000 4163.000000 1187.000000 4165.000000 1183.000000 4162.000000 1172.000000 4139.000000 1172.000000 4129.000000 1166.000000 4116.000000 1158.000000 4105.000000 1158.000000 4101.000000 1150.000000 4104.000000 1138.000000 4103.000000 1129.000000 4100.000000 1121.000000 4098.000000 1107.000000 
		}
	}
	members={
		4939 4948 4938 4409 4492 4493 4494 4496 4497 4498 4499 4500 4501 4502 4503 4470 4489 4504 4527 4511 4512 4622 4623 4641 4364 4620 4616 4618 4619 4611 4613 4617 4559 4621 4615 4609 4612 4614 4608 4610 4601 4606 4607 4600 4599 4602 4604 4605 4595 4594 4603 4598 4593 4583 4596 4561 4396 4597 4810 4820 4811 4822 4808 4934 4806 4809 4821 
	}
}
middle_rahen={
	location=4485
	color={
		190 180 20 
	}
	inland=yes
	outgoing={
		name="gulf_of_rahen"
		path={
			1361 
		}
		control={
			4115.000000 1205.000000 4116.000000 1199.000000 4118.000000 1194.000000 4115.000000 1184.000000 4108.000000 1180.000000 4111.000000 1169.000000 4116.000000 1167.000000 4115.000000 1163.000000 4111.000000 1162.000000 4109.000000 1159.000000 4105.000000 1158.000000 4101.000000 1150.000000 4104.000000 1138.000000 4103.000000 1129.000000 4100.000000 1121.000000 4098.000000 1107.000000 
		}
	}
	members={
		4461 4469 4479 4508 4472 4471 4477 4473 4480 4487 4495 4486 4485 4484 4483 4481 4482 4488 4491 4408 4490 4407 4419 4421 4422 4423 4424 4425 4392 4417 4391 4404 
	}
}
gulf_of_rahen={
	location=1361
	color={
		48 70 20 
	}
	outgoing={
		name="west_rahen_gulf"
		path={
			1350 
		}
		control={
			4067.000000 1098.000000 4046.000000 1094.000000 4044.000000 1084.000000 4057.000000 1067.000000 4054.000000 1056.000000 4036.000000 1052.000000 4014.000000 1061.000000 3992.000000 1085.000000 3972.000000 1088.000000 
		}
	}
	members={
		4547 4380 4382 4383 4384 4377 4388 4387 4389 4395 4390 4398 4551 4420 4406 4399 4418 4393 4394 4386 4554 4555 4556 4558 4557 4560 4562 4563 4564 4565 4566 4567 4568 4569 4570 4571 4572 4573 4574 4575 4576 4577 4578 4579 4577 4580 4581 4582 4584 4585 4586 4587 4588 4589 4590 4591 4592 1346 1360 1361 
	}
}
west_rahen_gulf={
	location=1350
	color={
		113 176 50 
	}
	outgoing={
		name="golden_highway"
		path={
			2901 
		}
		control={
			3899.000000 1130.000000 3864.000000 1190.000000 3834.000000 1242.000000 
		}
	}
	members={
		2923 2911 2912 2913 4361 4362 4363 4365 4366 4367 4369 4370 4371 4372 4374 4375 4378 1345 1347 1348 1349 1350 1351 2924 2925 566 3072 3073 4400 5431 5432 5433 5434 5435 5461 5667 5668 5437 5436 5464 5462 5463 
	}
}
epedna={
	location=1847
	color={
		229 160 107 
	}
	inland=yes
	outgoing={
		name="lower_ynn"
		path={
			1139 
		}
		control={
			1014.000000 1503.000000 1115.000000 1522.000000 
		}
	}
	outgoing={
		name="upper_ynn"
		path={
			1165 
		}
		control={
			1065.000000 1598.000000 1140.000000 1625.000000 
		}
	}
	outgoing={
		name="trollsbay"
		path={
			1519 
		}
		control={
			1010.000000 1497.000000 1076.000000 1453.000000 1096.000000 1400.000000 1133.000000 1327.000000 1218.000000 1292.000000 1262.000000 1306.000000 
		}
	}
	members={
		1773 1774 1194 1766 1193 1792 2821 2843 1800 1815 1816 1817 1818 1823 1824 1846 1847 1848 1849 1859 1851 1852 1853 1854 1855 1856 1857 1858 1860 1861 1862 1863 1864 2729 1850 2842 1838 1839 1840 1841 1842 1843 1844 1836 1879 1957 2855 1845 1931 2854 1882 2856 1881 1810 
	}
}
upper_ynn={
	location=1165
	color={
		38 78 128 
	}
	inland=yes
	outgoing={
		name="lower_ynn"
		path={
			1139 
		}
		control={
			1180.000000 1567.000000 1158.000000 1543.000000 
		}
	}
	outgoing={
		name="broken_sea"
		path={
			1492 
		}
		control={
			1170.000000 1643.000000 1202.000000 1715.000000 1176.000000 1779.000000 1170.000000 1829.000000 
		}
	}
	members={
		1837 1742 1198 2662 2838 2488 2840 2742 1197 1196 2819 2784 2807 2781 2811 2837 2839 2862 2814 1820 2813 2812 2808 2809 1819 1160 1162 1163 1164 1165 1166 1167 1168 1169 1170 1171 1172 1174 1175 1176 1177 1178 1179 1180 1181 1182 1183 1184 1185 1186 1187 1188 1189 1190 1191 1192 1745 1747 1748 1750 1755 1756 1757 1758 1759 1760 1764 1765 1767 
	}
}
lower_ynn={
	location=1139
	color={
		22 140 105 
	}
	inland=yes
	outgoing={
		name="trollsbay"
		path={
			1519 
		}
		control={
			1159.000000 1501.000000 1141.000000 1451.000000 1172.000000 1430.000000 1228.000000 1414.000000 1240.000000 1327.000000 
		}
	}
	members={
		2815 2857 1828 1829 1830 1831 1832 1833 1834 1835 2836 2844 2606 2615 2817 2783 2858 2757 2860 1877 1874 2861 2859 2810 2816 2841 1133 1134 1135 1136 1137 1138 1139 1140 1141 1142 1143 1144 1145 1146 1147 1148 1149 1150 1151 1152 1153 1154 1155 1156 1157 1158 1159 1161 2818 1821 1878 1822 1825 1826 1827 
	}
}
broken_sea={
	location=1492
	color={
		203 254 254 
	}
	outgoing={
		name="eigras"
		path={
			1693 
		}
		control={
			979.000000 1900.000000 848.000000 1826.000000 770.000000 1751.000000 
		}
	}
	outgoing={
		name="dalaire"
		path={
			1576 
		}
		control={
			1209.000000 1915.000000 1272.000000 1977.000000 1351.000000 1972.000000 1476.000000 2022.000000 1631.000000 2016.000000 1638.000000 1879.000000 1753.000000 1782.000000 
		}
	}
	members={
		1772 1989 1769 1753 1762 1770 2798 2799 2749 1768 1752 1751 1761 1754 1746 1749 1247 2482 1249 1248 2801 2802 2800 2820 1273 1245 1246 1234 1230 2516 1243 1244 1227 1228 1318 1235 1763 2569 1492 
	}
}
eigras={
	location=1693
	color={
		166 209 123 
	}
	outgoing={
		name="eordand"
		path={
			1690 
		}
		control={
			640.000000 1793.000000 509.000000 1835.000000 390.000000 1701.000000 
		}
	}
	members={
		2797 1984 1982 2047 1967 1776 1777 1778 1963 1813 1809 1962 1780 1964 1965 1971 1981 1983 1966 1968 1970 1775 1979 1972 1973 1987 1693 
	}
}
eordand={
	location=1690
	color={
		252 99 79 
	}
	outgoing={
		name="dearktir"
		path={
			1683 
		}
		control={
			429.000000 1590.000000 383.000000 1435.000000 437.000000 1361.000000 
		}
	}
	members={
		1118 1997 2027 2036 2025 2003 2004 2005 2007 2013 2024 2016 2017 2050 2015 1125 1993 1875 2011 2014 2012 1990 1771 2503 1988 2002 1969 1986 1985 1122 1978 1974 2006 1994 1109 1112 1690 2008 2026 2009 2159 
	}
}
dearktir={
	location=1683
	color={
		240 200 70 
	}
	outgoing={
		name="west_haraf"
		path={
			1720 
		}
		control={
			400.000000 1252.000000 539.000000 1156.000000 421.000000 952.000000 
		}
	}
	members={
		2063 2062 2061 2825 2051 2052 2053 2054 2055 2056 2057 2058 2059 2060 2010 2018 2019 2020 2021 2022 2023 2028 2029 2030 2031 2032 2033 2034 2035 2037 2038 2039 2040 2041 2042 2043 2044 2045 2048 2049 2046 1683 
	}
}
central_haraf={
	location=2822
	color={
		180 150 126 
	}
	inland=yes
	outgoing={
		name="west_haraf"
		path={
			1720 
		}
		control={
			803.000000 1107.000000 736.000000 1040.000000 616.000000 973.000000 
		}
	}
	members={
		2095 2096 2097 2098 2099 2100 2101 2102 2103 2104 2105 2106 2107 2108 2109 2110 2111 2112 2113 2114 2115 2822 2823 2826 2827 2138 2824 2094 1950 
	}
}
west_haraf={
	location=1720
	color={
		203 168 188 
	}
	outgoing={
		name="tor_nayyi"
		path={
			1684 
		}
		control={
			698.000000 849.000000 898.000000 911.000000 
		}
	}
	members={
		2079 2080 2081 2082 2083 2084 2085 2086 2087 2088 2089 2090 2092 2116 2117 2118 2119 2120 2121 2122 2123 2127 2128 2129 2130 2131 2132 2133 2134 2136 2139 2140 2141 2142 2143 2144 2145 2146 2147 2148 2149 2150 1720 
	}
}
larankar={
	location=2484
	color={
		180 117 63 
	}
	inland=yes
	outgoing={
		name="chendhya"
		path={
			1662 
		}
		control={
			1523.000000 337.000000 1460.000000 331.000000 
		}
	}
	outgoing={
		name="taychend"
		path={
			1544 
		}
		control={
			1634.000000 351.000000 1683.000000 293.000000 
		}
	}
	outgoing={
		name="south_effelai"
		path={
			2377 
		}
		control={
			1514.000000 346.000000 1455.000000 398.000000 1474.000000 462.000000 
		}
	}
	members={
		2467 2466 2472 2470 2469 2474 2473 2477 2475 2478 2481 2480 2483 2486 2487 2485 2489 2479 2484 2490 2491 2494 2552 2492 2554 2553 2555 2556 2493 2496 2497 2550 2558 
	}
}
taychend={
	location=1544
	color={
		20 200 190 
	}
	outgoing={
		name="korrimutren"
		path={
			1546 
		}
		control={
			1738.000000 127.000000 1605.000000 140.000000 1502.000000 182.000000 
		}
	}
	outgoing={
		name="dry_coast"
		path={
			1546 
		}
		control={
			1829.000000 347.000000 1903.000000 345.000000 1981.000000 296.000000 
		}
	}
	members={
		2522 2532 2523 2531 2517 2534 2536 2518 2519 2520 2533 2535 2521 2541 2543 2544 2546 2539 2537 2515 2514 2501 2540 2511 2510 2508 2509 2499 2502 2500 2507 2504 2506 2505 2498 2495 2551 2547 2549 2545 2564 2329 2330 1544 2513 
	}
}
south_effelai={
	location=2377
	color={
		54 94 59 
	}
	inland=yes
	outgoing={
		name="leechden"
		path={
			2233 2226 
		}
		control={
			1650.000000 520.000000 1636.000000 592.000000 1654.000000 634.000000 1671.000000 643.000000 1706.000000 678.000000 1764.000000 701.000000 1824.000000 668.000000 
		}
	}
	outgoing={
		name="dry_coast"
		path={
			2233 2226 
		}
		control={
			1645.020020 469.160004 1748.000000 375.000000 1806.000000 356.000000 1842.000000 356.000000 1900.000000 346.000000 1982.000000 296.000000 
		}
	}
	members={
		2363 2364 2365 2376 2375 2266 2343 2264 2267 2378 2377 2366 2339 2341 2342 2340 2370 2371 2369 2367 2368 2379 2381 2380 2374 2373 2372 
	}
}
dry_coast={
	location=1607
	color={
		220 198 36 
	}
	outgoing={
		name="east_effelai"
		path={
			1539 
		}
		control={
			2104.320068 281.760010 2224.000000 258.000000 2201.000000 356.000000 
		}
	}
	members={
		2512 2336 2345 2335 2333 2332 2346 2331 2347 2308 2337 2307 2309 2338 2344 2306 2305 2301 2304 2302 2300 2303 2294 2299 2298 2295 2296 2297 2311 2315 2313 2312 2314 2316 2317 2318 2319 2320 2321 2322 2323 2324 2325 2326 2327 2328 1607 2310 
	}
}
east_effelai={
	location=1539
	color={
		49 89 226 
	}
	outgoing={
		name="leechden"
		path={
			1301 1300 
		}
		control={
			2053.000000 605.000000 1928.000000 631.000000 
		}
	}
	members={
		1539 2273 2276 2275 2272 2274 2279 2277 2806 2246 2805 2245 2803 2804 2242 2240 2243 2244 2239 2291 2238 2290 2289 2292 2278 2288 2287 2237 2286 2280 2281 2285 2236 2235 2284 2241 2271 2270 2293 2247 2269 2268 2248 2249 2250 2252 2253 2254 2255 2256 2259 2260 2257 2262 2261 2258 2263 6503 
	}
}
chendhya={
	location=1662
	color={
		173 191 98 
	}
	inland=yes
	outgoing={
		name="mteibas"
		path={
			2665 
		}
		control={
			1289.000000 250.000000 1271.000000 183.000000 
		}
	}
	outgoing={
		name="korrimutren"
		path={
			1546 
		}
		control={
			1394.000000 226.000000 1456.000000 186.000000 
		}
	}
	outgoing={
		name="kheionai"
		path={
			1741 
		}
		control={
			1288.000000 255.000000 1234.000000 218.000000 1149.000000 206.000000 1092.000000 143.000000 
		}
	}
	members={
		2460 2461 2462 2463 2464 2468 2607 2605 2604 2587 2586 2584 2573 2572 2465 2603 2591 2610 2657 2655 2654 2652 2583 2585 2612 2611 2580 2582 2574 2650 2651 2656 2653 2593 2592 2594 2601 2602 1662 
	}
}
korrimutren={
	location=1546
	color={
		122 127 67 
	}
	outgoing={
		name="ameion"
		path={
			2683 
		}
		control={
			1413.000000 119.000000 
		}
	}
	members={
		2588 2590 2579 2578 2577 2576 2575 2568 2571 2570 2560 2567 2566 2565 2561 2525 2524 2526 2562 2559 2527 2529 2528 2542 2530 2581 2613 2589 1546 
	}
}
mteibas={
	location=2665
	color={
		88 134 54 
	}
	inland=yes
	outgoing={
		name="ameion"
		path={
			1731 
		}
		control={
			1335.000000 153.000000 1392.000000 104.000000 
		}
	}
	outgoing={
		name="kheionai"
		path={
			1741 
		}
		control={
			1234.000000 140.000000 1181.000000 112.000000 1105.000000 118.000000 
		}
	}
	members={
		2691 2638 2647 2704 2703 2637 2646 2667 2639 2644 2664 2663 2632 2631 2629 2627 2666 2661 2659 2628 2649 2658 2665 2660 2711 2705 2702 2712 2648 2710 2715 
	}
}
ameion={
	location=1731
	color={
		216 85 67 
	}
	outgoing={
		name="kheionai"
		path={
			1741 
		}
		control={
			1241.000000 11.000000 1116.000000 19.000000 1054.000000 103.000000 
		}
	}
	members={
		2684 2690 2692 2717 2716 2682 2697 2694 2693 2701 2686 2687 2688 2689 2635 2626 2640 2641 2642 2643 2645 2625 2624 2634 2622 2621 2623 2620 2619 2618 2617 2616 2630 2636 2633 2683 1731 
	}
}
kheionai={
	location=1741
	color={
		60 120 180 
	}
	outgoing={
		name="amadia"
		path={
			1555 1554 
		}
		control={
			1057.000000 248.000000 1141.000000 398.000000 
		}
	}
	members={
		2750 2751 2748 2747 2746 2779 2780 2752 2753 2782 2744 2778 2743 2745 2777 2772 2738 2739 2773 2775 2774 2776 2785 2737 2771 2770 2769 2736 2768 2733 2767 2764 2732 2754 2786 2766 2765 2762 2763 2731 2760 2755 2761 2730 2758 2756 2759 2728 2727 2726 2734 2735 2718 2725 2724 2681 2680 2679 2695 2678 2696 2700 2677 2706 2676 2719 2720 2721 2722 2599 2600 2723 2596 2597 2598 2670 2669 2668 2671 2673 2698 2699 2707 2675 2674 2595 2714 2672 2708 2709 2713 1741 
	}
}
amadia={
	location=1553
	color={
		199 199 199 
	}
	outgoing={
		name="tor_nayyi"
		path={
			1684 
		}
		control={
			989.000000 629.000000 979.000000 785.000000 
		}
	}
	members={
		2398 2397 2396 2391 2392 2393 2390 2389 2388 2386 2405 2417 2446 2406 2413 2412 2411 2409 2407 2408 2418 2419 2420 2414 2415 2431 2445 2423 2443 2427 2444 2421 2422 2428 2424 2429 2430 2439 2432 2441 2447 2440 2433 2434 2436 2435 2438 2442 2448 2451 2452 2453 2454 2416 2385 2458 2457 1195 2455 2382 2456 2387 2383 2384 2360 2361 2362 1554 2174 1553 
	}
}
tor_nayyi={
	location=1681
	color={
		69 100 124 
	}
	outgoing={
		name="cheshoshmar"
		path={
			1528 
		}
		control={
			1137.000000 868.000000 1193.000000 923.000000 1163.000000 1027.000000 1194.000000 1087.000000 
		}
	}
	outgoing={
		name="soruin"
		path={
			1438 
		}
		control={
			1126.000000 863.000000 1209.000000 841.000000 1306.000000 872.000000 
		}
	}
	members={
		2173 2151 2152 2153 2154 2155 2156 2157 2158 2161 2162 2163 2164 2165 2166 2167 2168 2160 2172 2064 2065 2066 2067 2068 2069 2070 2071 2072 2073 2074 2075 2076 2077 2078 1680 2171 2169 2170 2400 2399 2401 2402 2403 2404 1681 1682 1687 1688 1556 
	}
}
leechden={
	location=1511
	color={
		21 29 120 
	}
	outgoing={
		name="banished_isles"
		path={
			939 934 
		}
		control={
			1909.000000 888.000000 2033.000000 1159.000000 
		}
	}
	outgoing={
		name="soruin"
		path={
			1558 1438 
		}
		control={
			1737.000000 784.000000 1614.000000 871.000000 1474.000000 866.000000 
		}
	}
	members={
		2211 2212 2210 2213 2207 2185 2206 2209 2214 2216 2217 2228 2229 2222 2395 2218 2219 2221 2220 2265 2225 2282 2226 2227 2233 2223 2224 2234 2232 2231 1511 
	}
}
soruin={
	location=1438
	color={
		87 170 97 
	}
	outgoing={
		name="ruined_sea"
		path={
			1527 
		}
		control={
			1425.000000 970.000000 
		}
	}
	members={
		1306 2175 2177 2176 2178 2180 2199 2179 2190 2191 2192 2186 2187 2181 2182 2197 2198 2359 2189 2188 2193 2195 2196 2201 2202 2203 2204 2205 2183 2184 2355 2354 2394 2352 2353 2351 2357 2356 2358 2348 2349 2350 2215 1438 1071 1072 1073 1074 2091 
	}
}
cheshoshmar={
	location=1528
	color={
		55 55 55 
	}
	outgoing={
		name="trollsbay"
		path={
			1519 
		}
		control={
			1239.000000 1205.000000 1288.000000 1224.000000 
		}
	}
	members={
		1934 1935 1936 1933 1949 1943 1937 1938 1940 1865 1925 1939 1941 1930 1951 1942 1948 1944 1955 1947 1876 1945 1946 1870 1868 1872 1960 1130 1528 1052 1053 1054 1504 1102 1104 1105 1106 1099 1098 
	}
}
trollsbay={
	location=1519
	color={
		106 206 255 
	}
	outgoing={
		name="sella"
		path={
			1517 
		}
		control={
			1413.000000 1327.000000 
		}
	}
	outgoing={
		name="ruined_sea"
		path={
			1527 
		}
		control={
			1413.000000 1228.000000 
		}
	}
	members={
		1051 1020 2449 1021 1959 1024 1023 1132 1131 1025 1956 2476 2563 1027 1028 1873 1031 1901 1026 1953 2685 1867 1029 1032 1030 2410 1035 1036 1952 1033 1958 1037 1046 2614 1049 1048 1047 1869 1041 1042 1954 1034 1039 1038 1043 1044 1880 1040 1045 1866 1050 2741 1519 
	}
}
sella={
	location=1517
	color={
		213 54 36 
	}
	outgoing={
		name="dalaire"
		path={
			1576 
		}
		control={
			1607.000000 1324.000000 1692.000000 1410.000000 1680.000000 1540.000000 1666.000000 1648.000000 
		}
	}
	outgoing={
		name="banished_isles"
		path={
			1504 
		}
		control={
			1607.000000 1324.000000 1766.000000 1415.000000 1915.000000 1326.000000 
		}
	}
	outgoing={
		name="westport"
		path={
			112 85 
		}
		control={
			1607.000000 1324.000000 1766.000000 1415.000000 1988.000000 1372.000000 2355.000000 1543.000000 
		}
	}
	members={
		1124 2548 1110 1111 1996 2459 1995 1123 1126 1128 1129 1127 1961 2609 1121 2437 1998 1120 1999 2283 1991 1019 1022 1871 1018 1992 1117 2538 2450 1116 1114 1012 1119 1517 1015 1014 1013 1016 1113 2557 1115 2208 926 927 925 
	}
}
ruined_sea={
	location=1527
	color={
		73 124 154 
	}
	outgoing={
		name="dalaire"
		path={
			1576 
		}
		control={
			1632.000000 1100.000000 1651.000000 1181.000000 1622.670044 1250.339966 1614.000000 1311.000000 1692.000000 1410.000000 1680.000000 1540.000000 1666.000000 1648.000000 
		}
	}
	outgoing={
		name="banished_isles"
		path={
			1504 
		}
		control={
			1692.000000 1083.000000 1874.000000 1025.000000 1992.000000 1112.000000 2018.000000 1205.000000 
		}
	}
	members={
		1075 1076 1077 1078 1079 1080 1082 1081 1083 1084 1085 1086 1087 1101 1103 1088 1089 1090 1091 1092 1093 1096 1094 1095 1097 1006 1007 1008 1055 1058 1059 1062 1063 2125 2137 1221 2788 2135 1017 1527 1100 
	}
}
dalaire={
	location=1576
	color={
		73 96 154 
	}
	outgoing={
		name="serpentshead"
		path={
			1322 696 
		}
		control={
			1918.000000 1701.000000 2281.000000 1800.000000 2548.000000 1969.000000 2718.000000 1891.000000 
		}
	}
	outgoing={
		name="dragon_coast"
		path={
			1294 177 
		}
		control={
			2023.000000 1648.000000 2386.000000 1763.000000 2547.000000 1689.000000 2621.000000 1676.000000 
		}
	}
	members={
		924 949 950 951 2787 1205 1202 1203 1204 1208 1207 1210 1209 1212 1211 2851 2852 2846 2847 2845 2849 1201 2848 2853 1217 1215 1214 1213 1206 1218 1224 1226 1233 1232 1219 1223 1220 1225 1222 1229 1231 2789 2790 2791 2792 2793 2794 2795 2796 1241 1240 1238 1237 1236 1200 1216 1199 1744 1743 1242 2850 1239 1576 
	}
}
banished_isles={
	location=1504
	color={
		202 117 32 
	}
	outgoing={
		name="akan"
		path={
			1300 402 
		}
		control={
			2068.000000 1211.000000 2213.000000 1211.000000 2346.000000 1251.000000 2508.000000 1266.000000 2690.000000 1376.000000 
		}
	}
	outgoing={
		name="bay_of_wines"
		path={
			1504 
		}
		control={
			2068.000000 1211.000000 2213.000000 1211.000000 2346.000000 1251.000000 2508.000000 1266.000000 2673.000000 1384.000000 2731.000000 1430.000000 
		}
	}
	outgoing={
		name="westport"
		path={
			1504 
		}
		control={
			2072.000000 1291.000000 2140.000000 1334.000000 2215.000000 1452.000000 2375.000000 1525.000000 
		}
	}
	outgoing={
		name="anbenncost"
		path={
			1504 
		}
		control={
			2068.000000 1211.000000 2213.000000 1211.000000 2346.000000 1251.000000 2508.000000 1266.000000 2659.000000 1365.000000 2745.000000 1392.000000 2778.169922 1404.890015 2821.000000 1446.000000 2814.000000 1474.000000 2820.000000 1496.000000 
		}
	}
	members={
		938 933 932 934 935 936 937 942 939 941 940 931 930 929 928 943 944 945 946 947 948 1002 1003 1004 1005 1011 1010 1009 1056 1057 1061 1060 1070 1069 1068 1067 1066 1065 1064 2126 2230 2828 2124 2093 1108 1107 1504 
	}
}
deepwoods={
	location=3023
	color={
		25 75 0 
	}
	inland=yes
	outgoing={
		name="marrhold"
		path={
			643 640 
		}
		control={
			3208.000000 1548.000000 3193.000000 1551.000000 3185.000000 1555.000000 3189.000000 1568.000000 3196.000000 1586.000000 
		}
	}
	outgoing={
		name="harpylen"
		path={
			643 640 
		}
		control={
			3236.000000 1526.000000 3258.000000 1529.000000 3271.000000 1525.000000 3269.000000 1518.000000 3276.000000 1510.000000 3292.000000 1499.000000 3300.000000 1495.000000 3299.000000 1487.000000 3334.000000 1474.000000 3348.000000 1468.000000 3380.000000 1442.000000 3414.000000 1408.000000 
		}
	}
	outgoing={
		name="flooded_coast"
		path={
			643 640 
		}
		control={
			3209.000000 1542.000000 3193.000000 1537.000000 3183.000000 1532.000000 3177.000000 1525.000000 3171.000000 1521.000000 3163.000000 1526.000000 3156.000000 1534.000000 3152.000000 1540.000000 3145.000000 1533.000000 3143.000000 1529.000000 3143.000000 1521.000000 3139.000000 1511.000000 3117.000000 1508.000000 3107.000000 1493.000000 3116.000000 1491.000000 3121.000000 1489.000000 3108.000000 1483.000000 3100.000000 1478.000000 3091.000000 1479.000000 3085.000000 1476.000000 3076.000000 1477.000000 3074.000000 1469.000000 3071.000000 1463.000000 3060.000000 1463.000000 3044.000000 1462.000000 
		}
	}
	outgoing={
		name="serpentreach"
		path={
			643 640 
		}
		control={
			3236.000000 1526.000000 3252.000000 1518.000000 3246.000000 1509.000000 3251.000000 1492.000000 3262.000000 1479.000000 3256.000000 1470.000000 3257.000000 1464.000000 
		}
	}
	members={
		3004 3005 3006 3007 3008 3009 3010 3011 3012 3013 3014 3015 3016 3017 3018 3019 3020 3021 3022 3024 3023 3025 3026 3027 3028 3029 3030 3031 3032 3033 3034 3035 3036 3037 3038 3039 3040 3041 3042 3043 3044 3045 3046 3047 3048 3049 3050 3051 3052 3053 3054 3055 3056 3057 3058 3059 3060 3061 3062 3063 3064 3065 3066 3067 3068 3069 3070 3071 
	}
}
upper_alen={
	location=872
	color={
		98 101 167 
	}
	inland=yes
	outgoing={
		name="castonath"
		path={
			858 865 
		}
		control={
			3151.000000 1667.000000 
		}
	}
	members={
		860 861 858 864 869 865 866 874 873 868 870 863 872 878 879 867 871 880 881 882 884 859 862 
	}
}
golden_highway={
	location=2901
	color={
		255 138 12 
	}
	inland=yes
	outgoing={
		name="sareyand"
		path={
			638 
		}
		control={
			3680.000000 1290.000000 3647.000000 1270.000000 3615.000000 1265.000000 3595.000000 1270.000000 3550.000000 1245.000000 
		}
	}
	outgoing={
		name="seghdihr"
		path={
			4124 
		}
		control={
			3734.000000 1341.000000 3667.000000 1329.000000 3633.000000 1324.000000 3615.000000 1302.000000 
		}
	}
	members={
		2900 2901 2902 2903 2904 2905 2906 2907 2908 2909 2910 2915 2916 2917 2918 2919 2920 2921 2922 2926 2927 2928 2929 2930 4376 684 583 571 6103 
	}
}
seghdihr={
	location=4124
	color={
		130 150 200 
	}
	inland=yes
	outgoing={
		name="sareyand"
		path={
			638 
		}
		control={
			3611.000000 1284.000000 3595.000000 1270.000000 3550.000000 1245.000000 
		}
	}
	outgoing={
		name="ernatvir"
		path={
			4027 2889 2886 2883 2881 2879 2878 2932 2876 
		}
		control={
			3603.000000 1323.000000 3534.000000 1326.000000 3472.000000 1353.000000 3431.000000 1410.000000 3405.639893 1442.550049 3386.000000 1486.000000 3348.000000 1499.000000 3340.000000 1528.000000 3315.000000 1569.000000 3323.000000 1590.000000 
		}
	}
	members={
		2914 4218 4090 4114 4113 4223 4219 4220 4112 4111 4222 4091 4221 4231 2895 2894 4094 4092 4095 4106 4089 4087 4086 4107 4108 4109 2893 2892 4027 4110 4088 4230 4082 4216 4124 4085 4083 4081 2891 2890 2889 4079 4084 4080 4239 4078 4214 4215 4229 4228 4227 2888 2887 2886 4028 2885 4217 
	}
}
harpylen={
	location=665
	color={
		221 117 182 
	}
	inland=yes
	outgoing={
		name="ovdal_tungr"
		path={
			526 
		}
		control={
			3336.000000 1404.000000 3318.000000 1392.000000 3302.000000 1384.000000 3281.000000 1386.000000 3246.000000 1375.000000 3239.000000 1364.000000 3222.000000 1351.020020 3207.000000 1349.000000 3178.000000 1366.000000 
		}
	}
	outgoing={
		name="brasan"
		path={
			1309 
		}
		control={
			3353.000000 1348.000000 3355.000000 1329.000000 3348.000000 1314.000000 3329.000000 1312.000000 3310.000000 1309.000000 3314.000000 1291.000000 3298.000000 1271.000000 3301.000000 1255.000000 3285.000000 1249.000000 3261.000000 1232.000000 
		}
	}
	outgoing={
		name="bulwar"
		path={
			601 
		}
		control={
			3434.000000 1362.000000 3425.000000 1330.000000 3416.000000 1304.000000 3387.000000 1310.000000 
		}
	}
	members={
		653 655 656 660 663 661 664 665 666 667 668 669 671 670 672 673 674 675 676 677 678 654 652 659 662 658 657 4117 650 649 651 
	}
}
ovdal_tungr={
	location=1312
	color={
		77 198 223 
	}
	outgoing={
		name="brasan"
		path={
			1309 
		}
		control={
			3183.000000 1312.000000 3195.000000 1274.000000 
		}
	}
	outgoing={
		name="eborthil"
		path={
			1313 1307 
		}
		control={
			3061.000000 1361.000000 3006.000000 1384.000000 
		}
	}
	outgoing={
		name="serpentreach"
		path={
			1313 1307 
		}
		control={
			3180.000000 1382.000000 3179.000000 1405.000000 3212.000000 1432.000000 3226.000000 1448.000000 3251.000000 1450.000000 
		}
	}
	members={
		517 518 519 520 521 522 523 525 526 527 528 529 530 531 532 533 534 535 536 537 538 539 540 541 542 543 544 545 581 547 550 548 1312 549 551 553 
	}
}
serpentreach={
	location=4100
	color={
		70 240 160 
	}
	inland=yes
	outgoing={
		name="flooded_coast"
		path={
			2962 2943 2956 4238 449 
		}
		control={
			3224.000000 1455.000000 3196.000000 1431.000000 3171.000000 1452.000000 3151.000000 1449.000000 3132.000000 1443.000000 3099.000000 1465.000000 
		}
	}
	outgoing={
		name="ernatvir"
		path={
			4240 2981 2878 2932 2876 
		}
		control={
			3264.000000 1450.000000 3329.000000 1450.000000 3344.000000 1446.000000 3346.000000 1491.000000 3339.000000 1529.000000 3314.000000 1569.000000 3323.000000 1589.000000 
		}
	}
	members={
		4039 4038 4040 4042 4041 2949 4037 4036 2951 2952 2985 2984 4035 2980 2981 2978 2982 2979 4099 2975 2970 2983 2977 2974 2973 2968 4098 2976 2969 2971 2972 4126 4240 2967 4100 2962 2966 2965 2964 4127 2961 2959 2958 2960 2947 2948 2950 4093 2946 2945 2944 2943 2942 2955 2954 2956 4032 4031 2957 4034 4033 4030 2987 4238 2941 2939 2940 
	}
}
ernatvir={
	location=2931
	color={
		200 200 200 
	}
	inland=yes
	outgoing={
		name="west_dwarovar"
		path={
			2873 4043 
		}
		control={
			3300.000000 1614.000000 3289.000000 1616.000000 3280.000000 1650.000000 3260.000000 1701.000000 
		}
	}
	outgoing={
		name="amldihr"
		path={
			2990 2992 4128 
		}
		control={
			3322.000000 1614.000000 3322.000000 1638.000000 3339.000000 1659.000000 3364.000000 1668.000000 
		}
	}
	outgoing={
		name="marrhold"
		path={
			2990 2992 4128 
		}
		control={
			3301.000000 1614.000000 3279.000000 1616.000000 3234.000000 1612.000000 
		}
	}
	members={
		2874 2934 4065 2986 4052 4053 2931 2988 4150 4062 2989 4213 4212 4165 2876 4104 2932 2875 4067 4066 4061 4060 4059 4058 4057 4076 4075 4077 4105 4056 4237 4068 4069 4070 4071 4072 4073 2877 2937 2878 4101 4102 4103 2879 2880 2963 2881 2882 2883 4029 2884 
	}
}
marrhold={
	location=888
	color={
		167 165 135 
	}
	inland=yes
	outgoing={
		name="marches"
		path={
			811 
		}
		control={
			3157.000000 1592.000000 
		}
	}
	outgoing={
		name="castonath"
		path={
			840 
		}
		control={
			3150.000000 1630.000000 
		}
	}
	members={
		895 896 897 893 894 883 891 888 889 890 892 886 887 885 875 876 877 856 857 4097 
	}
}
west_dwarovar={
	location=2868
	color={
		70 70 200 
	}
	inland=yes
	outgoing={
		name="amldihr"
		path={
			2933 4122 
		}
		control={
			3264.000000 1703.000000 3274.000000 1683.000000 3309.000000 1705.000000 
		}
	}
	outgoing={
		name="castonath"
		path={
			2863 847 
		}
		control={
			3226.000000 1713.000000 3199.000000 1726.000000 3141.000000 1722.000000 
		}
	}
	members={
		2897 2896 2863 2864 2935 2865 2898 2899 2870 2869 4163 2868 4022 2995 4023 4025 4024 4026 4021 2866 2867 2871 4074 4096 4054 4044 4045 4046 4047 4048 4049 4055 4043 2872 2933 2873 4050 4552 4553 4236 
	}
}
castonath={
	location=840
	color={
		222 222 222 
	}
	inland=yes
	outgoing={
		name="middle_alen"
		path={
			831 832 833 754 
		}
		control={
			3059.000000 1697.000000 3034.000000 1724.000000 3006.000000 1716.000000 
		}
	}
	outgoing={
		name="silvermere"
		path={
			785 
		}
		control={
			3095.000000 1651.000000 
		}
	}
	members={
		837 839 754 842 747 848 840 843 845 847 841 853 855 746 743 850 849 846 852 851 844 854 755 836 828 830 831 832 833 827 
	}
}
marches={
	location=811
	color={
		230 216 166 
	}
	inland=yes
	outgoing={
		name="gablaine"
		path={
			1303 
		}
		control={
			3102.000000 1562.000000 3077.000000 1540.000000 
		}
	}
	outgoing={
		name="silvermere"
		path={
			811 817 
		}
		control={
			3071.000000 1594.000000 
		}
	}
	members={
		802 803 805 807 791 797 798 800 808 806 812 811 815 814 813 810 816 817 818 819 824 826 799 801 793 822 
	}
}
silvermere={
	location=785
	color={
		200 200 255 
	}
	inland=yes
	outgoing={
		name="freecestir"
		path={
			357 352 349 
		}
		control={
			3014.000000 1614.000000 
		}
	}
	outgoing={
		name="middle_alen"
		path={
			729 
		}
		control={
			3037.000000 1650.000000 2997.000000 1682.000000 
		}
	}
	members={
		767 756 834 835 829 821 825 823 820 809 783 788 790 794 795 796 785 786 787 789 784 764 766 765 792 781 782 772 773 774 768 769 770 771 776 780 779 778 777 775 422 
	}
}
middle_alen={
	location=229
	color={
		20 105 123 
	}
	inland=yes
	outgoing={
		name="lower_alen"
		path={
			225 221 
		}
		control={
			2964.000000 1722.000000 2952.000000 1737.000000 2927.000000 1751.000000 2896.000000 1738.000000 
		}
	}
	outgoing={
		name="bay_of_chills"
		path={
			1256 701 
		}
		control={
			2974.429932 1722.699951 2986.000000 1750.000000 
		}
	}
	members={
		229 230 232 231 710 725 726 729 749 730 732 727 750 728 751 753 758 759 761 763 762 741 745 742 744 748 760 757 
	}
}
freecestir={
	location=357
	color={
		154 237 233 
	}
	inland=yes
	outgoing={
		name="lower_alen"
		path={
			239 
		}
		control={
			2929.000000 1669.000000 
		}
	}
	outgoing={
		name="esmaraine"
		path={
			266 
		}
		control={
			2934.000000 1580.000000 
		}
	}
	members={
		261 351 352 360 359 353 354 355 356 361 350 253 236 252 349 238 244 334 250 256 342 258 357 358 257 248 245 246 247 
	}
}
northern_pass={
	location=4182
	color={
		200 200 100 
	}
	inland=yes
	outgoing={
		name="amldihr"
		path={
			4193 4145 4149 
		}
		control={
			3320.000000 1756.000000 3350.000000 1728.000000 3329.000000 1722.000000 
		}
	}
	outgoing={
		name="vrorensbay"
		path={
			991 990 
		}
		control={
			3217.000000 1780.000000 3205.000000 1806.000000 3179.000000 1813.000000 3164.000000 1823.000000 3148.000000 1818.000000 3148.000000 1798.000000 3148.000000 1784.000000 3129.000000 1777.000000 3126.000000 1763.000000 3114.000000 1757.000000 3107.000000 1752.000000 3091.000000 1765.000000 3090.000000 1782.000000 3079.000000 1794.000000 
		}
	}
	members={
		4211 4210 4209 4208 4207 4206 4205 4204 4203 4201 4198 4202 4200 4199 4197 4195 4196 4191 4194 4192 4193 4190 4189 4183 4182 4181 4188 4187 4185 4186 4180 4184 4176 4174 4175 4173 4171 6173 6187 6214 6196 
	}
}
vrorensbay={
	location=1286
	color={
		129 129 195 
	}
	outgoing={
		name="serpentshead"
		path={
			1289 1322 696 
		}
		control={
			3015.000000 1855.000000 2974.000000 1878.000000 2929.000000 1888.000000 2901.000000 1869.000000 2877.000000 1856.000000 2847.000000 1851.000000 2818.000000 1855.000000 
		}
	}
	outgoing={
		name="bay_of_chills"
		path={
			1256 
		}
		control={
			3026.000000 1829.000000 2994.000000 1812.000000 
		}
	}
	members={
		717 718 719 720 733 734 735 736 737 738 739 740 972 973 974 975 976 977 978 979 980 981 982 983 984 985 986 987 988 989 990 991 992 1286 2829 2830 2831 2832 2833 2834 2835 6171 6220 6240 1289 
	}
}
bay_of_chills={
	location=1256
	color={
		158 209 209 
	}
	outgoing={
		name="serpentshead"
		path={
			1322 696 
		}
		control={
			2957.000000 1791.000000 2935.000000 1835.000000 2893.000000 1850.000000 2847.000000 1851.000000 2818.000000 1855.000000 
		}
	}
	outgoing={
		name="lower_alen"
		path={
			1322 696 
		}
		control={
			2957.000000 1791.000000 2942.000000 1822.000000 2920.000000 1822.000000 2919.000000 1785.000000 2906.000000 1745.000000 
		}
	}
	members={
		702 723 705 704 706 722 721 709 712 701 713 707 711 716 714 715 733 731 752 1256 703 724 
	}
}
lower_alen={
	location=222
	color={
		64 95 184 
	}
	inland=yes
	outgoing={
		name="dameshead"
		path={
			216 151 
		}
		control={
			2846.000000 1668.000000 
		}
	}
	outgoing={
		name="serpentshead"
		path={
			216 151 
		}
		control={
			2853.000000 1721.000000 2805.000000 1725.000000 2778.000000 1746.000000 2736.000000 1769.000000 2748.000000 1813.000000 2804.000000 1833.000000 
		}
	}
	members={
		224 237 239 243 338 221 222 223 341 346 337 220 339 225 240 226 340 217 218 201 202 203 204 195 196 227 228 241 343 344 242 
	}
}
serpentshead={
	location=1322
	color={
		186 223 145 
	}
	outgoing={
		name="dragon_coast"
		path={
			1294 177 
		}
		control={
			2778.000000 1866.000000 2723.000000 1837.000000 2681.729980 1780.689941 2549.000000 1754.000000 2560.000000 1689.000000 2621.000000 1676.000000 
		}
	}
	members={
		188 190 199 198 191 345 194 192 193 197 200 694 695 708 698 697 696 699 700 952 953 954 955 956 997 959 960 1000 993 994 995 996 999 1322 957 958 961 962 963 964 965 966 967 968 969 970 971 998 
	}
}
dragon_coast={
	location=1294
	color={
		68 97 136 
	}
	outgoing={
		name="viswall"
		path={
			66 63 
		}
		control={
			2714.000000 1663.000000 2693.000000 1617.000000 
		}
	}
	outgoing={
		name="westport"
		path={
			112 85 
		}
		control={
			2620.000000 1599.000000 2555.000000 1506.000000 
		}
	}
	members={
		170 167 145 148 144 169 146 177 178 176 175 172 173 174 181 171 179 180 182 184 183 185 187 186 189 129 142 138 140 122 1294 1001 4643 4644 4645 4646 
	}
}
viswall={
	location=166
	color={
		169 127 74 
	}
	inland=yes
	outgoing={
		name="dameshead"
		path={
			216 151 
		}
		control={
			2747.000000 1591.000000 2770.000000 1608.000000 2793.000000 1613.000000 
		}
	}
	outgoing={
		name="westport"
		path={
			112 85 
		}
		control={
			2718.000000 1583.000000 2678.000000 1581.000000 2627.000000 1553.000000 2566.000000 1502.000000 
		}
	}
	members={
		63 66 131 132 136 162 163 161 164 160 159 166 139 137 133 158 152 135 134 7 348 206 210 103 147 165 149 76 12 150 211 213 117 118 71 141 143 
	}
}
westport={
	location=1263
	color={
		191 87 197 
	}
	outgoing={
		name="bay_of_wines"
		path={
			223 221 1295 1296 1297 
		}
		control={
			2626.000000 1462.000000 2670.000000 1401.000000 2731.000000 1430.000000 
		}
	}
	members={
		58 102 104 105 78 126 128 123 124 125 96 98 75 92 107 87 119 112 110 111 113 121 120 115 116 106 83 82 90 100 91 85 88 99 93 94 127 1263 130 1 
	}
}
bay_of_wines={
	location=1292
	color={
		142 65 92 
	}
	outgoing={
		name="anbenncost"
		path={
			8 52 
		}
		control={
			2759.000000 1446.000000 2802.000000 1429.000000 2822.000000 1452.000000 2814.000000 1474.020020 2820.000000 1496.000000 
		}
	}
	members={
		49 41 101 97 81 84 86 38 72 73 59 33 32 34 40 64 62 70 77 114 108 79 80 95 67 74 68 61 69 89 20 31 47 48 1292 
	}
}
gablaine={
	location=433
	color={
		154 154 154 
	}
	inland=yes
	outgoing={
		name="flooded_coast"
		path={
			1303 
		}
		control={
			3040.000000 1547.000000 3061.000000 1491.000000 
		}
	}
	outgoing={
		name="arannen"
		path={
			904 
		}
		control={
			3009.000000 1558.000000 2991.330078 1509.800049 
		}
	}
	members={
		424 427 428 426 425 430 441 440 439 438 431 432 433 434 435 437 436 429 804 443 442 
	}
}
flooded_coast={
	location=1303
	color={
		16 135 99 
	}
	outgoing={
		name="eborthil"
		path={
			380 
		}
		control={
			2995.000000 1425.000000 2966.159912 1383.079956 
		}
	}
	outgoing={
		name="arannen"
		path={
			904 
		}
		control={
			2997.000000 1454.000000 
		}
	}
	members={
		446 450 445 451 447 448 449 409 410 411 412 413 416 420 452 506 507 508 509 510 511 512 513 514 515 516 921 922 444 421 1303 
	}
}
arannen={
	location=318
	color={
		51 69 168 
	}
	inland=yes
	outgoing={
		name="esmaraine"
		path={
			266 901 
		}
		control={
			2909.000000 1528.000000 
		}
	}
	outgoing={
		name="eborthil"
		path={
			8 52 
		}
		control={
			2928.000000 1442.000000 2958.000000 1409.020020 2957.000000 1380.020020 
		}
	}
	outgoing={
		name="anbenncost"
		path={
			8 52 
		}
		control={
			2904.000000 1498.000000 2866.000000 1484.000000 2842.000000 1496.000000 2822.000000 1501.000000 
		}
	}
	members={
		303 304 305 306 294 300 332 295 307 318 907 903 312 326 321 323 324 322 325 904 418 419 313 316 317 319 315 913 414 415 327 298 898 906 299 918 919 417 920 579 923 
	}
}
esmaraine={
	location=266
	color={
		187 128 165 
	}
	inland=yes
	outgoing={
		name="dameshead"
		path={
			266 
		}
		control={
			2896.000000 1596.000000 
		}
	}
	members={
		266 254 262 260 267 333 274 911 308 309 302 901 909 273 272 271 900 280 916 268 263 270 311 314 320 310 912 423 301 297 902 279 44 576 917 
	}
}
akan={
	location=1300
	color={
		204 204 204 
	}
	outgoing={
		name="eborthil"
		path={
			380 365 382 
		}
		control={
			2836.000000 1348.000000 2878.000000 1353.000000 
		}
	}
	members={
		402 389 388 387 386 407 385 384 406 397 398 396 383 395 401 392 393 390 391 400 1300 5790 5791 5792 6091 6092 6093 6094 6095 6128 
	}
}
sareyand={
	location=638
	color={
		245 207 137 
	}
	inland=yes
	outgoing={
		name="bulwar"
		path={
			601 
		}
		control={
			3483.000000 1282.000000 3428.000000 1277.020020 3389.000000 1300.000000 
		}
	}
	members={
		625 626 627 629 630 632 633 631 634 636 637 635 639 638 640 641 642 643 644 647 648 645 646 558 585 681 
	}
}
bulwar={
	location=601
	color={
		248 193 92 
	}
	inland=yes
	outgoing={
		name="brasan"
		path={
			565 1398 
		}
		control={
			3343.000000 1289.000000 3342.000000 1266.000000 3321.000000 1258.000000 3301.000000 1255.000000 3285.000000 1249.000000 3261.000000 1232.020020 
		}
	}
	members={
		594 593 590 591 603 610 599 601 602 604 611 600 605 606 607 612 690 628 624 608 613 609 614 615 616 617 622 621 620 623 618 619 
	}
}
brasan={
	location=1309
	color={
		147 207 236 
	}
	outgoing={
		name="mothers_sorrow"
		path={
			1305 475 463 
		}
		control={
			3215.000000 1236.000000 3167.000000 1268.020020 3111.000000 1245.020020 
		}
	}
	members={
		496 495 505 497 498 499 500 501 578 573 564 565 567 572 561 570 568 584 679 680 682 683 685 597 596 598 693 692 686 687 691 688 689 595 1309 552 554 555 556 557 559 560 562 563 574 577 580 586 588 589 582 1310 6101 6102 6104 
	}
}
golkora={
	location=481
	color={
		180 137 50 
	}
	inland=yes
	outgoing={
		name="mothers_sorrow"
		path={
			1305 475 463 
		}
		control={
			3179.000000 1054.000000 3143.000000 1091.020020 3118.770020 1155.250000 3086.000000 1190.000000 
		}
	}
	members={
		479 480 481 482 483 484 486 487 485 488 489 5465 5472 5475 5476 5477 5478 5479 5480 5532 5533 5676 6090 6100 
	}
}
mothers_sorrow={
	location=1305
	color={
		255 128 64 
	}
	outgoing={
		name="eborthil"
		path={
			1296 380 
		}
		control={
			3016.000000 1290.000000 2962.000000 1307.000000 2934.000000 1331.020020 2900.000000 1346.000000 2896.000000 1357.000000 
		}
	}
	members={
		455 456 457 460 461 462 503 463 546 464 466 467 468 465 470 490 492 493 494 469 471 472 473 491 502 474 592 475 476 477 478 504 1305 6088 6089 6096 6097 6098 6099 
	}
}
eborthil={
	location=1296
	color={
		214 161 50 
	}
	outgoing={
		name="anbenncost"
		path={
			8 52 
		}
		control={
			2862.000000 1378.000000 2809.000000 1408.020020 2822.000000 1452.020020 2814.000000 1474.020020 2820.000000 1496.000000 
		}
	}
	members={
		39 373 374 380 369 35 379 36 377 375 376 378 370 371 288 290 291 292 405 382 403 399 404 381 453 458 365 367 368 372 366 408 362 363 364 293 289 454 459 838 1296 6513 
	}
}
anbenncost={
	location=1270
	color={
		84 162 167 
	}
	outgoing={
		name="dameshead"
		path={
			1252 216 151 234 
		}
		control={
			2796.000000 1518.000000 2787.000000 1524.000000 2793.000000 1554.000000 2836.000000 1575.000000 
		}
	}
	members={
		10 13 15 17 28 23 24 27 26 43 46 14 42 57 11 8 168 4 2 9 50 51 45 25 276 330 37 277 29 52 53 54 55 56 283 285 286 331 287 282 284 329 296 278 328 281 1270 16 21 30 22 19 910 899 569 394 109 587 
	}
}
dameshead={
	location=1252
	color={
		201 185 131 
	}
	members={
		216 251 235 219 249 233 234 214 215 336 212 18 153 154 156 157 65 151 60 155 205 208 3 5 275 269 265 259 255 264 207 209 347 905 915 914 908 335 6 575 524 1252 
	}
	end=yes
}
amldihr={
	location=4119
	color={
		50 75 100 
	}
	inland=yes
	members={
		2990 4141 4144 2991 4063 4064 2992 2993 2996 4147 2997 4148 4130 2998 2999 3000 3001 3002 3003 4020 4118 4125 4129 4142 4131 4143 4121 4122 4128 4119 4149 4120 4123 4151 4158 4152 4164 4166 4145 2994 4051 
	}
	end=yes
}
