# 129 - Krain
owner = A05
controller = A05
add_core = A05
culture = reverian
religion = regent_court
hre = no
base_tax = 3
base_production = 5
trade_goods = fish
base_manpower = 4
capital = "" 
is_city = yes







