#143 - Vlore | 

owner = A05 #Reveria
controller = A05
add_core = A05
culture = reverian
religion = regent_court

hre = no

base_tax = 4
base_production = 4
base_manpower = 4

trade_goods = livestock
capital = ""

is_city = yes
fort_15th = yes 





