#353 - Tataouine

owner = A32
controller = A32
add_core = A32
culture = moon_elf
religion = elven_forebears

hre = no

base_tax = 6
base_production = 8
base_manpower = 3

trade_goods = wine

capital = ""

is_city = yes



add_permanent_province_modifier = {
	name = ibevar_old_tradition
	duration = 36500
}




