#378 - Tripoli

owner = A29
controller = A29
add_core = A29
culture = busilari
religion = regent_court

hre = no

base_tax = 4
base_production = 4
base_manpower = 4

trade_goods = cloth

capital = ""

is_city = yes











