#384 - Medina

owner = F07
controller = F07
add_core = F07
add_core = F57
culture = khasani
religion = mother_akan

hre = no

base_tax = 3
base_production = 3
base_manpower = 4

trade_goods = grain

capital = ""

is_city = yes

add_permanent_province_modifier = {
	name = gnollish_minority_integrated_large
	duration = -1
}






