#408 - Basra

owner = A29
controller = A29
add_core = A29
culture = busilari
religion = regent_court

hre = no

base_tax = 5
base_production = 5
base_manpower = 4

trade_goods = wine
center_of_trade = 1

capital = ""

is_city = yes












add_permanent_province_modifier = {
	name = half_elven_minority_coexisting_small
	duration = -1
}
