
owner = R52
controller = R52
add_core = R52
add_core = R56
culture = rabhidarubsad
religion = high_philosophy

hre = no

base_tax = 5
base_production = 5
base_manpower = 3

trade_goods = grain

capital = ""

is_city = yes
