#899 - Osage

owner = A45
controller = A45
add_core = A45
culture = east_damerian
religion = regent_court

hre = yes

base_tax = 4
base_production = 4
base_manpower = 5

trade_goods = cloth

capital = ""

is_city = yes










add_permanent_province_modifier = {
	name = half_elven_minority_coexisting_small
	duration = -1
}