#904 - Nakota

owner = A72
controller = A72
add_core = A72
culture = arannese
religion = regent_court

hre = yes

base_tax = 7
base_production = 7
base_manpower = 5

trade_goods = cloth
center_of_trade = 2

capital = ""

is_city = yes
fort_15th = yes 









add_permanent_province_modifier = {
	name = half_elven_minority_coexisting_large
	duration = -1
}