country_decisions = {

	unite_the_children = {
		major = yes
		potential = {
			OR = {
				primary_culture = desha
				primary_culture = far_akani
				primary_culture = khasani
			}
			NOT = { tag = F58 }
			NOT = { has_country_flag = formed_akan_flag }
		}
		provinces_to_highlight = {
			OR = {
				province_id = 382
				province_id = 400
				province_id = 402
			}
		}
		allow = {
			is_free_or_tributary_trigger = yes
			is_at_war = no
			NOT = { exists = F58 }
			num_of_owned_provinces_with = {
				value = 15
				region = akan_region
			}
			owns_core_province = 382
			owns_core_province = 400
			owns_core_province = 402
		}
		effect = {
			set_country_flag = formed_akan_flag
			change_tag = F58
			hidden_effect = { restore_country_name = yes }
			remove_non_electors_emperors_from_empire_effect = yes
			swap_non_generic_missions = yes
			add_prestige = 20
			if = {
				limit = {
					NOT = { government_rank = 2 }
				}
				set_government_rank = 2
			}
			if = {
				limit = { has_custom_ideas = no }
				country_event = { id = ideagroups.1 } #Swap Ideas
			}
			add_country_modifier = {
				name = "centralization_modifier"
				duration = 7300
			}
			akan_region = {
				limit = {
					NOT = { is_core = ROOT }
					NOT = { owned_by = ROOT }
					NOT = { area = coastal_krahway_area }
					NOT = { area = western_krahway_area }
					NOT = { area = salahad_islands_area }
				}
				add_permanent_claim = ROOT
			}
			oris_area = {
			limit = {
					NOT = { is_core = ROOT }
					NOT = { owned_by = ROOT }
				}
				add_permanent_claim = ROOT
			}
		}
		ai_will_do = {
			factor = 1
		}
		ai_importance = 400
	}
}