###########################################################
# Events for the Artificers Estate
#
# written by Tus3
###########################################################

namespace = artificers_estate_events

#Advancement of the manufacturing classes
country_event = {
	id = artificers_estate_events.1
	title = artificers_estate_events.1.t
	desc = artificers_estate_events.1.d
	picture = BURGHER_ESTATE_eventPicture
	
	trigger = {

		has_estate = estate_artificers
		NOT = {
			has_estate_influence_modifier = {
				estate = estate_artificers
				modifier = EST_VAL_ARTIFICERS_ADVANCE
			}
		}
		NOT = {
			has_estate_influence_modifier = {
				estate = estate_artificers
				modifier = EST_VAL_ARTIFICERS_DECLINE
			}
		}
	}

	is_triggered_only = yes

	option = {
		name = artificers_estate_events.1.a #Ok
		add_estate_influence_modifier = {
			estate = estate_artificers
			desc = EST_VAL_ARTIFICERS_ADVANCE
			influence = 10
			duration = 5475
		}
	}
}

#Decline of the manufacturing classes
country_event = {
	id = artificers_estate_events.2
	title = artificers_estate_events.2.t
	desc = artificers_estate_events.2.d
	picture = BURGHER_ESTATE_eventPicture
	
	trigger = {

		has_estate = estate_artificers
		NOT = {
			has_estate_influence_modifier = {
				estate = estate_artificers
				modifier = EST_VAL_ARTIFICERS_ADVANCE
			}
		}
		NOT = {
			has_estate_influence_modifier = {
				estate = estate_artificers
				modifier = EST_VAL_ARTIFICERS_DECLINE
			}
		}
	}
	
	is_triggered_only = yes
	
	option = {
		name = artificers_estate_events.2.a #Ok
		add_estate_influence_modifier = {
			estate = estate_artificers
			desc = EST_VAL_ARTIFICERS_DECLINE
			influence = -10
			duration = 5475
		}
	}
}

#Free trade or protectionism
#Burghers vs Artificers
country_event = {
	id = artificers_estate_events.3
	title = artificers_estate_events.3.t
	desc = artificers_estate_events.3.d
	picture = BURGHER_ESTATE_eventPicture
	
	trigger = {

		has_estate = estate_burghers
		has_estate = estate_artificers
		NOT = {
			has_estate_influence_modifier = {
				estate = estate_burghers
				modifier = EST_VAL_BURGHERS_FREE_TRADE
			}
		}
		NOT = {
			has_estate_influence_modifier = {
				estate = estate_burghers
				modifier = EST_VAL_BURGHERS_PROTECTIONISM
			}
		}
	}
	
	is_triggered_only = yes
	
	immediate = {
		random_owned_province = {
			save_event_target_as = target_province
		}
	}

	option = {
		name = artificers_estate_events.3.a #The burghers are right we need free trade.
		ai_chance = {
			factor = 50
			modifier = {
				factor = 0.5
				NOT = {
					estate_loyalty = {
						estate = estate_artificers
						loyalty = 40
					}
				}
			}
			modifier = {
				factor = 1.5
				estate_influence = {
					estate = estate_artificers
					influence = 65
				}
			}
			modifier = {
				factor = 1.5
				NOT = {
					estate_loyalty = {
						estate = estate_burghers
						loyalty = 40
					}
				}
			}
			modifier = {
				factor = 0.5
				estate_influence = {
					estate = estate_burghers
					influence = 65
				}
			}
		}
		event_target:target_province = {
			add_base_tax = 1
		}
		add_estate_loyalty = {
			estate = estate_burghers
			loyalty = 15
		}
		add_estate_loyalty = {
			estate = estate_artificers
			loyalty = -15
		}
		add_estate_influence_modifier = {
			estate = estate_burghers
			desc = EST_VAL_ARTIFICERS_FREE_TRADE
			influence = -10
			duration = 5475
		}
		add_estate_influence_modifier = {
			estate = estate_nobles
			desc = EST_VAL_BURGHERS_FREE_TRADE
			influence = 10
			duration = 5475
		}
		add_mercantilism = -1
		add_dip_power = 20
	}
	option = {
		name = artificers_estate_events.3.b #The artificers are right we need protectionism
		ai_chance = {
			factor = 50
			modifier = {
				factor = 1.5
				NOT = {
					estate_loyalty = {
						estate = estate_artificers
						loyalty = 40
					}
				}
			}
			modifier = {
				factor = 0.5
				estate_influence = {
					estate = estate_artificers
					influence = 65
				}
			}
			modifier = {
				factor = 0.5
				NOT = {
					estate_loyalty = {
						estate = estate_burghers
						loyalty = 40
					}
				}
			}
			modifier = {
				factor = 1.5
				estate_influence = {
					estate = estate_burghers
					influence = 65
				}
			}
		}
		event_target:target_province = {
			add_base_production = 1
		}
		add_estate_loyalty = {
			estate = estate_burghers
			loyalty = -15
		}
		add_estate_loyalty = {
			estate = estate_artificers
			loyalty = 15
		}
		add_estate_influence_modifier = {
			estate = estate_artificers
			desc = EST_VAL_ARTIFICERS_PROTECTIONISM
			influence = 10
			duration = 5475
		}
		add_estate_influence_modifier = {
			estate = estate_burghers
			desc = EST_VAL_BURGHERS_PROTECTIONISM
			influence = -10
			duration = 5475
		}
		add_mercantilism = 1
		add_dip_power = -20
	}
	option = {
		name = artificers_estate_events.3.c #Try to please both by combining free trade with manufacturing subsidies.
		ai_chance = {
			factor = 50
			modifier = {
				factor = 1.5
				NOT = {
					estate_loyalty = {
						estate = estate_artificers
						loyalty = 40
					}
				}
			}
			modifier = {
				factor = 0.5
				estate_influence = {
					estate = estate_artificers
					influence = 65
				}
			}
			modifier = {
				factor = 0.5
				NOT = { years_of_income = 0.5 }
			}
			modifier = {
				factor = 1.5
				NOT = {
					estate_loyalty = {
						estate = estate_burghers
						loyalty = 40
					}
				}
			}
			modifier = {
				factor = 0.5
				estate_influence = {
					estate = estate_burghers
					influence = 65
				}
			}
		}
		event_target:target_province = {
			add_base_production = 1
			add_base_tax = 1
		}
		add_estate_loyalty = {
			estate = estate_burghers
			loyalty = 5
		}
		add_estate_loyalty = {
			estate = estate_artificers
			loyalty = 5
		}
		add_estate_influence_modifier = {
			estate = estate_artificers
			desc = EST_VAL_ARTIFICERS_PROTECTIONISM
			influence = 10
			duration = 5475
		}
		add_estate_influence_modifier = {
			estate = estate_burghers
			desc = EST_VAL_BURGHERS_FREE_TRADE
			influence = 10
			duration = 5475
		}
		add_mercantilism = 1
		add_dip_power = 20
		add_years_of_income = -0.5
	}
}

#Peasants migrating to cities
#Artificers vs Nobles
country_event = {
	id = artificers_estate_events.4
	title = artificers_estate_events.4.t
	desc = artificers_estate_events.4.d
	picture = NOBLE_ESTATE_DEMANDS_eventPicture
	
	trigger = {

		has_estate = estate_artificers
		has_estate = estate_nobles
		estate_influence = {
			estate = estate_artificers
			influence = 30
		}
		any_owned_province = {
			NOT = { development = 10 }
			base_manpower = 2
		}
		any_owned_province = {
			development = 15
		}
		NOT = {
			has_estate_influence_modifier = {
				estate = estate_artificers
				modifier = EST_VAL_PEASANTS_RETURNED
			}
		}
		NOT = {
			has_estate_influence_modifier = {
				estate = estate_artificers
				modifier = EST_VAL_PEASANTS_MIGRATED_TO_CITIES
			}
		}
	}
	
	is_triggered_only = yes

	option = {
		name = artificers_estate_events.4.a #Enforce serfdom, send the peasants back.
		ai_chance = {
			factor = 50
			modifier = {
				factor = 0.5
				NOT = {
					estate_loyalty = {
						estate = estate_artificers
						loyalty = 40
					}
				}
			}
			modifier = {
				factor = 1.5
				estate_influence = {
					estate = estate_artificers
					influence = 65
				}
			}
			modifier = {
				factor = 1.5
				NOT = {
					estate_loyalty = {
						estate = estate_nobles
						loyalty = 40
					}
				}
			}
			modifier = {
				factor = 0.5
				estate_influence = {
					estate = estate_nobles
					influence = 65
				}
			}
		}
		add_estate_loyalty = {
			estate = estate_nobles
			loyalty = 15
		}
		add_estate_loyalty = {
			estate = estate_artificers
			loyalty = -15
		}
		add_estate_influence_modifier = {
			estate = estate_artificers
			desc = EST_VAL_PEASANTS_RETURNED
			influence = -10
			duration = 5475
		}
		add_estate_influence_modifier = {
			estate = estate_nobles
			desc = EST_VAL_PEASANTS_RETURNED
			influence = 10
			duration = 5475
		}
	}
	option = {
		name = artificers_estate_events.4.b #It isn't my problem their peasants are running away!
		ai_chance = {
			factor = 50
			modifier = {
				factor = 1.5
				NOT = {
					estate_loyalty = {
						estate = estate_artificers
						loyalty = 40
					}
				}
			}
			modifier = {
				factor = 0.5
				estate_influence = {
					estate = estate_artificers
					influence = 65
				}
			}
			modifier = {
				factor = 0.5
				NOT = {
					estate_loyalty = {
						estate = estate_nobles
						loyalty = 40
					}
				}
			}
			modifier = {
				factor = 1.5
				estate_influence = {
					estate = estate_nobles
					influence = 65
				}
			}
		}
		random_owned_province = {
			limit = {
				development = 15
			}
			add_base_production = 1
		}
		random_owned_province = {
			limit = {
				NOT = { development = 10 }
				base_manpower = 2
			}
			add_base_manpower = -1
		}
		add_estate_loyalty = {
			estate = estate_nobles
			loyalty = -15
		}
		add_estate_loyalty = {
			estate = estate_artificers
			loyalty = 15
		}
		add_estate_influence_modifier = {
			estate = estate_nobles
			desc = EST_VAL_PEASANTS_MIGRATED_TO_CITIES
			influence = -10
			duration = 5475
		}
		add_estate_influence_modifier = {
			estate = estate_artificers
			desc = EST_VAL_PEASANTS_MIGRATED_TO_CITIES
			influence = 10
			duration = 5475
		}
	}
}

#$ESTATE_CHURCH$ Insulted
#Artificers vs Church
country_event = {
	id = artificers_estate_events.5
	title = artificers_estate_events.5.t
	desc = artificers_estate_events.5.d
	picture = CHURCH_ESTATE_1_eventPicture
	
	is_triggered_only = yes
	
	trigger = {

		has_estate = estate_church
		has_estate = estate_artificers
		NOT = {
			has_estate_influence_modifier = {
				estate = estate_church
				modifier = EST_VAL_CHURCH_RIDICULIZED
			}
		}
		NOT = {
			has_estate_influence_modifier = {
				estate = estate_church
				modifier = EST_VAL_CHURCH_DEFENDED
			}
		}
	}
	
	option = {
		name = artificers_estate_events.5.a #Then we will force the university to fire him.
		ai_chance = {
			factor = 50
			modifier = {
				factor = 1.5
				NOT = {
					estate_loyalty = {
						estate = estate_church
						loyalty = 40
					}
				}
			}
			modifier = {
				factor = 0.5
				estate_influence = {
					estate = estate_church
					influence = 60
				}
			}
			modifier = {
				factor = 0.5
				NOT = {
					estate_loyalty = {
						estate = estate_artificers
						loyalty = 40
					}
				}
			}
			modifier = {
				factor = 1.5
				estate_influence = {
					estate = estate_artificers
					influence = 60
				}
			}
		}
		add_estate_loyalty = {
			estate = estate_church
			loyalty = 5
		}
		add_estate_church_loyalty_effect = yes
		add_estate_influence_modifier = {
			estate = estate_church
			desc = EST_VAL_CHURCH_DEFENDED
			influence = 10
			duration = 5475
		}
		add_estate_influence_modifier = {
			estate = estate_artificers
			desc = EST_VAL_CHURCH_DEFENDED
			influence = -10
			duration = 5475
		}
	}
	option = {
		name = artificers_estate_events.5.b #A mild reprimand will be enough.
		ai_chance = {
			factor = 50
			modifier = {
				factor = 0.5
				NOT = {
					estate_loyalty = {
						estate = estate_church
						loyalty = 40
					}
				}
			}
			modifier = {
				factor = 1.5
				estate_influence = {
					estate = estate_church
					influence = 60
				}
			}
		}
		reduce_estate_church_loyalty_effect = yes
		add_estate_loyalty = {
			estate = estate_artificers
			loyalty = 5
		}
		add_legitimacy = -5
		add_estate_influence_modifier = {
			estate = estate_church
			desc = EST_VAL_CHURCH_RIDICULIZED
			influence = -10
			duration = 5475
		}
	}
}

#Demands for reducing recources tarifs
#Demands from Estates at High Influence
country_event = {
	id = artificers_estate_events.6
	title = artificers_estate_events.6.t
	desc = artificers_estate_events.6.d
	picture = BURGHER_ESTATE_UPSET_eventPicture
	
	trigger = {

		has_estate = estate_artificers
		estate_influence = {
			estate = estate_artificers
			influence = 70
		}
		NOT = {
			has_estate_influence_modifier = {
				estate = estate_artificers
				modifier = EST_VAL_REFUSED_LOWERING_RECOURCES_TARIFS
			}
		}
		NOT = {
			has_estate_influence_modifier = {
				estate = estate_artificers
				modifier = EST_VAL_LOWERING_RECOURCES_TARIFS
			}
		}
		mercantilism = 15
	}
	
	is_triggered_only = yes
	
	option = {
		name = artificers_estate_events.6.a #Ok, lower them.
		ai_chance = {
			factor = 25
		}
		add_mercantilism = -3
		add_estate_influence_modifier = {
			estate = estate_artificers
			desc = EST_VAL_LOWERING_RECOURCES_TARIFS
			influence = 10
			duration = 5475
		}
	}
	option = {
		name = artificers_estate_events.6.b #They deserve no influence over goverment policy.
		ai_chance = {
			factor = 75
			modifier = {
				factor = 0.25
				NOT = {
					estate_loyalty = {
						estate = estate_artificers
						loyalty = 45
					}
				}
			}
		}
		add_estate_loyalty = {
			estate = estate_artificers
			loyalty = -20
		}
		add_estate_influence_modifier = {
			estate = estate_artificers
			desc = EST_VAL_REFUSED_LOWERING_RECOURCES_TARIFS
			influence = -5
			duration = 5475
		}
	}
}

#Nepotism
country_event = {
	id = artificers_estate_events.7
	title = artificers_estate_events.7.t
	desc = artificers_estate_events.7.d
	picture = ECONOMY_eventPicture
	
	trigger = {

		has_estate = estate_artificers
		NOT = {
			has_estate_influence_modifier = {
				estate = estate_artificers
				modifier = EST_VAL_ARTIFICERS_NEPOTISM
			}
		}
		NOT = {
			has_estate_influence_modifier = {
				estate = estate_artificers
				modifier = EST_VAL_ARTIFICERS_NEW_PERSONNEL
			}
		}
	}
	
	is_triggered_only = yes
	
	immediate = {
		hidden_effect = {
			random_owned_province = {
				set_province_flag = needs_more_workers
			}
			random_owned_province = {
				limit = {
					NOT = { has_province_flag = needs_more_workers }
					owner = { num_of_cities = 12 }
				}
				set_province_flag = needs_more_workers
			}
			random_owned_province = {
				limit = {
					NOT = { has_province_flag = needs_more_workers }
					owner = { num_of_cities = 24 }
				}
				set_province_flag = needs_more_workers
			}
			random_owned_province = {
				limit = {
					NOT = { has_province_flag = needs_more_workers }
					owner = { num_of_cities = 38 }
				}
				set_province_flag = needs_more_workers
			}
		}
	}
	
	option = {
		name = artificers_estate_events.7.a #Let them
		ai_chance = {
			factor = 40
			modifier = {
				factor = 2
				estate_influence = {
					estate = estate_artificers
					influence = 60
				}
			}
		}
		add_estate_loyalty = {
			estate = estate_artificers
			loyalty = 5
		}
		add_estate_influence_modifier = {
			estate = estate_artificers
			desc = EST_VAL_ARTIFICERS_NEPOTISM
			influence = -10
			duration = 7300
		}
		every_owned_province = {
			limit = { has_province_flag = needs_more_workers }
			add_province_modifier = {
				name = "thankful_guilds"
				duration = 3650
			}
			clr_province_flag = needs_more_workers
		}	
	}
	option = {
		name = artificers_estate_events.7.b #Force them to accept new personnel
		ai_chance = {
			factor = 40
			modifier = {
				factor = 0.5
				NOT = {
					estate_loyalty = {
						estate = estate_artificers
						loyalty = 35
					}
				}
			}
		}
		add_estate_loyalty = {
			estate = estate_artificers
			loyalty = -15
		}
		add_estate_influence_modifier = {
			estate = estate_artificers
			desc = EST_VAL_ARTIFICERS_NEW_PERSONNEL
			influence = 10
			duration = 7300
		}	
		every_owned_province = {
			limit = { has_province_flag = needs_more_workers }
			add_base_production = 1
			clr_province_flag = needs_more_workers
		}
	}
	option = {
		name = artificers_estate_events.7.c #Go around them by sponsoring new guilds
		ai_chance = {
			factor = 20
			modifier = {
				factor = 2
				NOT = {
					estate_loyalty = {
						estate = estate_artificers
						loyalty = 35
					}
				}
			}
			modifier = {
				factor = 2
				NOT = {
					estate_influence = {
						estate = estate_artificers
						influence = 30
					}	
				}
			}
			modifier = {
				factor = 0.5
				NOT = { years_of_income = 0.75 }
			}
		}
		add_estate_influence_modifier = {
			estate = estate_artificers
			desc = EST_VAL_ARTIFICERS_NEW_PERSONNEL
			influence = 10
			duration = 7300
		}	
		every_owned_province = {
			limit = { has_province_flag = needs_more_workers }
			add_base_production = 1
			clr_province_flag = needs_more_workers
		}
		add_years_of_income = -0.75
	}
}

#Mad artificers are threatening stability
country_event = {
	id = artificers_estate_events.8
	title = artificers_estate_events.8.t
	desc = artificers_estate_events.8.d
	picture = ANGRY_MOB_eventPicture
	
	trigger = {

		has_estate = estate_artificers
		stability = 0
		NOT = {
			has_estate_influence_modifier = {
				estate = estate_artificers
				modifier = EST_VAL_ARTIFICERS_FREE_REIGN
			}
		}
		NOT = {
			has_estate_influence_modifier = {
				estate = estate_artificers
				modifier = EST_VAL_ARTIFICERS_NO_FREE_REIGN
			}
		}
		NOT = { has_country_modifier = for_knowledge }
	}
	
	is_triggered_only = yes
	
	option = {
		name = artificers_estate_events.8.a
		ai_chance = {
			factor = 75
			modifier = {
				factor = 0.5
				estate_influence = {
					estate = estate_artificers
					influence = 60
				}
			}
			modifier = {
				factor = 2
				estate_loyalty = {
					estate = estate_artificers
					loyalty = 35
				}
			}
		}
		add_estate_influence_modifier = {
			estate = estate_artificers
			desc = EST_VAL_ARTIFICERS_NO_FREE_REIGN
			influence = -5
			duration = 7300
		}	
		reduce_estate_artificers_loyalty_effect = yes		
	}
	option = {
		name = artificers_estate_events.8.b
		ai_chance = {
			factor = 25
			modifier = {
				factor = 2.0
				NOT = {
					estate_loyalty = {
						estate = estate_artificers
						loyalty = 40
					}
				}
			}
			modifier = {
				factor = 2.0
				ruler_has_personality = scholar_personality
			}
		}
		add_stability = -1
		add_country_modifier = {
			name = for_knowledge
			duration = 3650
		}
		add_estate_influence_modifier = {
			estate = estate_artificers
			desc = EST_VAL_ARTIFICERS_FREE_REIGN
			influence = 5
			duration = 7300
		}		
	}
}

#Nice things can also come from strong and loyal Artificers.
#Bonus for high influence + high loyalty
country_event = {
	id = artificers_estate_events.9
	title = artificers_estate_events.9.t
	desc = artificers_estate_events.9.d
	picture = BURGHER_ESTATE_eventPicture
	
	trigger = {

		has_estate = estate_artificers
		estate_influence = {
			estate = estate_artificers
			influence = 60
		}
		estate_loyalty = {
			estate = estate_artificers
			loyalty = 60
		}
		NOT = { has_country_modifier = for_knowledge }
	}
	
	is_triggered_only = yes
	
	immediate = {
		hidden_effect = {
			random_list = {
				65 = { set_country_flag = growing_scientific_community }
				35 = { set_country_flag = growing_cities }
			}
		}
	}
	
	option = {
		name = artificers_estate_events.9.a #
		trigger_switch = {
			on_trigger = has_country_flag
			growing_scientific_community = {
				add_country_modifier = {
					name = for_knowledge
					duration = 7300
				}
				clr_country_flag = growing_scientific_community
			}
			growing_cities = {
				random_owned_province = {
					add_base_production = 1
				}
				clr_country_flag = growing_cities
			}
		}
	}
}

#Rising city
#Artificers vs burghers
country_event = {
	id = artificers_estate_events.10
	title = artificers_estate_events.10.t
	desc = artificers_estate_events.10.d
	picture = CITY_DEVELOPMENT_eventPicture
	
	is_triggered_only = yes
	
	trigger = {

		has_estate = estate_artificers
		has_estate = estate_burghers
		any_owned_province = {
			is_overseas = no
			is_colony = no
			is_capital = no
			is_territory = no
			base_production = 10
			base_tax = 10
			has_seat_in_parliament = no
		}
		NOT = {
			has_estate_influence_modifier = {
				estate = estate_artificers
				modifier = EST_VAL_CITY_GRANTED_TO_MERCHANTS
			}
		}
		NOT = {
			has_estate_influence_modifier = {
				estate = estate_artificers
				modifier = EST_VAL_CITY_GRANTED_TO_ARTIFICERS
			}
		}
		NOT = {
			has_estate_influence_modifier = {
				estate = estate_artificers
				modifier = EST_VAL_CITY_NOT_GRANTED
			}
		}
	}
	
	option = {
		name = artificers_estate_events.10.a #Side with the $ESTATE_ARTIFICERS$.
		ai_chance = {
			factor = 50
			modifier = {
				factor = 1.5
				NOT = {
					estate_loyalty = {
						estate = estate_artificers
						loyalty = 45
					}
				}
			}
			modifier = {
				factor = 0.5
				NOT = {
					estate_loyalty = {
						estate = estate_burghers
						loyalty = 40
					}
				}
			}
			modifier = {
				factor = 0.5
				estate_influence = {
					estate = estate_artificers
					influence = 60
				}
			}
			modifier = {
				factor = 1.5
				estate_influence = {
					estate = estate_burghers
					influence = 60
				}
			}
		}
		random_owned_province = {
			limit = {
				is_overseas = no
				is_capital = no
				is_colony = no
				is_territory = no
				base_production = 10
				base_tax = 10
				has_seat_in_parliament = no
				is_state_core = ROOT
			}
			add_base_production = 1
		}
		add_estate_artificers_loyalty_effect = yes
		reduce_estate_burghers_loyalty_effect = yes
		add_estate_influence_modifier = {
			estate = estate_artificers
			desc = EST_VAL_CITY_GRANTED_TO_ARTIFICERS
			influence = 10
			duration = 5475
		}
		add_estate_influence_modifier = {
			estate = estate_burghers
			desc = EST_VAL_CITY_GRANTED_TO_ARTIFICERS
			influence = -10
			duration = 5475
		}
	}
	option = {
		name = artificers_estate_events.10.b #Side with the $ESTATE_BURGHERS$.
		ai_chance = {
			factor = 50
			modifier = {
				factor = 0.5
				NOT = {
					estate_loyalty = {
						estate = estate_artificers
						loyalty = 45
					}
				}
			}
			modifier = {
				factor = 1.5
				NOT = {
					estate_loyalty = {
						estate = estate_burghers
						loyalty = 40
					}
				}
			}
			modifier = {
				factor = 1.5
				estate_influence = {
					estate = estate_artificers
					influence = 60
				}
			}
			modifier = {
				factor = 0.5
				estate_influence = {
					estate = estate_burghers
					influence = 60
				}
			}
		}
		random_owned_province = {
			limit = {
				is_overseas = no
				is_capital = no
				is_colony = no
				is_territory = no
				base_production = 10
				base_tax = 10
				has_seat_in_parliament = no
			}
			add_base_tax = 1
		}
		reduce_estate_artificers_loyalty_effect = yes
		add_estate_burghers_loyalty_effect = yes
		add_estate_influence_modifier = {
			estate = estate_artificers
			desc = EST_VAL_CITY_GRANTED_TO_MERCHANTS
			influence = -10
			duration = 5475
		}
		add_estate_influence_modifier = {
			estate = estate_burghers
			desc = EST_VAL_CITY_GRANTED_TO_MERCHANTS
			influence = 10
			duration = 5475
		}
	}
	option = {
		name = artificers_estate_events.10.c #Favor neither to retain control of province.
		ai_chance = {
			factor = 50
			modifier = {
				factor = 0.5
				NOT = {
					estate_loyalty = {
						estate = estate_artificers
						loyalty = 45
					}
				}
			}
			modifier = {
				factor = 0.5
				NOT = {
					estate_loyalty = {
						estate = estate_burghers
						loyalty = 40
					}
				}
			}
			modifier = {
				factor = 1.5
				estate_influence = {
					estate = estate_artificers
					influence = 60
				}
			}
			modifier = {
				factor = 1.5
				estate_influence = {
					estate = estate_burghers
					influence = 60
				}
			}
		}
		reduce_estate_artificers_loyalty_effect = yes
		reduce_estate_burghers_loyalty_effect = yes
		add_estate_influence_modifier = {
			estate = estate_artificers
			desc = EST_VAL_CITY_NOT_GRANTED
			influence = -10
			duration = 5475
		}
		add_estate_influence_modifier = {
			estate = estate_burghers
			desc = EST_VAL_CITY_NOT_GRANTED
			influence = -10
			duration = 5475
		}
	}
}

#Fund expansion of the university?
country_event = {
	id = artificers_estate_events.11
	title = artificers_estate_events.11.t
	desc = artificers_estate_events.11.d
	picture = UNIVERSITY_eventPicture
	
	trigger = {

		has_estate = estate_artificers
		NOT = {
			has_estate_influence_modifier = {
				estate = estate_artificers
				modifier = EST_VAL_ARTIFICERS_UNIVERSITY
			}
		}
		NOT = {
			has_estate_influence_modifier = {
				estate = estate_artificers
				modifier = EST_VAL_ARTIFICERS_NO_UNIVERSITY
			}
		}
	}
	
	is_triggered_only = yes
	
	
	option = {
		name = artificers_estate_events.11.a #It's already big enough anyway, we don't need prestige projects.
		ai_chance = {
			factor = 50
			modifier = {
				factor = 2
				estate_influence = {
					estate = estate_artificers
					influence = 60
				}
			}
			modifier = {
				factor = 0.5
				NOT = {
					estate_loyalty = {
						estate = estate_artificers
						loyalty = 35
					}
				}
			}
		}
		add_estate_influence_modifier = {
			estate = estate_artificers
			desc = EST_VAL_ARTIFICERS_NO_UNIVERSITY
			influence = -10
			duration = 7300
		}
		add_estate_loyalty = {
			estate = estate_artificers
			loyalty = -15
		}
	}
	option = {
		name = artificers_estate_events.11.b #Ofcourse we'll expand it.
		ai_chance = {
			factor = 50
			modifier = {
				factor = 2.0
				NOT = {
					estate_loyalty = {
						estate = estate_artificers
						loyalty = 40
					}
				}
			}
			modifier = {
				factor = 0.5
				NOT = { years_of_income = 0.6 }
			}
		}
		add_estate_influence_modifier = {
			estate = estate_artificers
			desc = EST_VAL_ARTIFICERS_UNIVERSITY
			influence = 10
			duration = 7300
		}	
		add_estate_loyalty = {
			estate = estate_artificers
			loyalty = 15
		}
		add_prestige = 5
		add_years_of_income = -0.6			
	}
}

#City Protests
#Consequence for Angry artificer Estate
country_event = {
	id = artificers_estate_events.15
	title = artificers_estate_events.15.t
	desc = artificers_estate_events.15.d
	picture = BURGHER_ESTATE_UPSET_eventPicture
	
	trigger = {

		has_estate = estate_artificers
		NOT = {
			estate_loyalty = {
				estate = estate_artificers
				loyalty = 30
			}
		}
		#any_owned_province = {
		#	has_estate = estate_artificers
		#}
	}
	
	is_triggered_only = yes
	
	immediate = {
		hidden_effect = {
			random_owned_province = {
				set_province_flag = city_protests
			}
			random_owned_province = {
				limit = {
					NOT = { has_province_flag = city_protests }
				}
				set_province_flag = city_protests
			}
			random_owned_province = {
				limit = {
					NOT = { has_province_flag = city_protests }
				}
				set_province_flag = city_protests
			}
			random_owned_province = {
				limit = {
					NOT = { has_province_flag = city_protests }
				}
				set_province_flag = city_protests
			}
			random_owned_province = {
				limit = {
					NOT = { has_province_flag = city_protests }
				}
				set_province_flag = city_protests
			}
			random_owned_province = {
				limit = {
					owner = {
						estate_influence = {
							estate = estate_artificers
							influence = 40
						}
					}
					NOT = { has_province_flag = city_protests }
				}
				set_province_flag = city_protests
			}
			random_owned_province = {
				limit = {
					owner = {
						estate_influence = {
							estate = estate_artificers
							influence = 40
						}
					}
					NOT = { has_province_flag = city_protests }
				}
				set_province_flag = city_protests
			}
			random_owned_province = {
				limit = {
					owner = {
						estate_influence = {
							estate = estate_artificers
							influence = 60
						}
					}
					NOT = { has_province_flag = city_protests }
				}
				set_province_flag = city_protests
			}
			random_owned_province = {
				limit = {
					owner = {
						estate_influence = {
							estate = estate_artificers
							influence = 60
						}
					}
					NOT = { has_province_flag = city_protests }
				}
				set_province_flag = city_protests
			}
			random_owned_province = {
				limit = {
					owner = {
						estate_influence = {
							estate = estate_artificers
							influence = 60
						}
					}
					NOT = { has_province_flag = city_protests }
				}
				set_province_flag = city_protests
			}
		}
	}
	
	option = {
		name = artificers_estate_events.15.a #
		ai_chance = {
			factor = 0
		}
		every_owned_province = {
			limit = {
				has_province_flag = city_protests
			}
			clr_province_flag = city_protests
			spawn_rebels = {
				type = particularist_rebels
				size = 1
			}
		}
	}
	option = {
		name = artificers_estate_events.15.b #
		ai_chance = {
			factor = 1
		}
		every_owned_province = {
			limit = {
				has_province_flag = city_protests
			}
			clr_province_flag = city_protests
			add_local_autonomy = 33
		}
		add_estate_loyalty = {
			estate = estate_artificers
			loyalty = 15
		}
	}
}

#Province revolt
province_event = {
	id = artificers_estate_events.16
	title = artificers_estate_events.16.t
	desc = artificers_estate_events.16.d
	picture = BURGHER_ESTATE_UPSET_eventPicture
	
	is_triggered_only = yes
	
	option = {
		name = artificers_estate_events.16.a #Ok.
	}
}

# Capacity stuff
country_event = {
	id = artificers_estate_events.100
	title = artificers_estate_events.100.t
	desc = artificers_estate_events.100.d
	picture = HUIZTILOPOCHTLI_eventPicture

	is_triggered_only = yes

	immediate = {
		artifice_breakdown = yes
		hidden_effect = {
			set_up_artifice_system = yes
			update_artifice_points = yes
		}
	}
	
	option = {
		name = debug.100.a
	}
}