
namespace = flavor_chippengard

#Dynasty Naming
country_event = {
	id = flavor_chippengard.1
	title = dynasty_setup.1.t
	desc = dynasty_setup.1.d
	picture = {
		trigger = {
			NOT = { has_dlc = "Rights of Man" }
		}
		picture = COURT_eventPicture
	}
	picture = {
		trigger = {
			has_dlc = "Rights of Man"
		}
		picture = ROYAL_COUPLE_FUTURE_eventPicture
	}
	
	fire_only_once = yes
	is_triggered_only = yes
	
	trigger = {
		tag = H59
	}
	
	#New Dynasty Name after country
	option = {		
		name = "flavor_chippengard.1.a"
		ai_chance = { factor = 50 }	
		define_heir = {
			dynasty = "of Chippengard"
			age = 16
			male = yes
			adm = 1
			dip = 1
			mil = 1
			hide_skills = yes
		}
	}
	
	#Maybe another option
	option = {		
		name = "flavor_chippengard.1.b"
		ai_chance = { factor = 40 }
		define_heir = {
			dynasty = "Chippen"
			age = 16
			male = yes
			adm = 1
			dip = 1
			mil = 1
			hide_skills = yes
		}
	}
	
	#Keep their name
	option = {
		name = "flavor_chippengard.1.c"
		ai_chance = { factor = 5 }
		define_heir = {
			dynasty = ROOT
			age = 16
			male = yes
			adm = 1
			dip = 1
			mil = 1
			hide_skills = yes
		}
	}
}